Sex,WeightClassKg,Division,Place,CyrillicName,Name,BirthDate,Team,BodyweightKg,Best3SquatKg,Best3BenchKg,Best3DeadliftKg,TotalKg,Event,Equipment
M,59,Open,1,Артем Некритий,Artem Oleksandrovych,1989-09-13,Тандем,58.96,142.5,105,182.5,430,SBD,Raw
M,59,Open,2,Дмитро Сокол,Dmytro Sokol,1999-10-13,Прометей,58.48,132.5,102.5,160,395,SBD,Raw
M,59,Open,3,Назар Чичотка,Nazar Chychotka,2001-08-21,ХДАФК,58.70,140,95,152.5,387.5,SBD,Raw
M,66,Open,1,Василь Мица,Vasyl Mytsa,1989-12-09,,65.50,215,130,250,595,SBD,Raw
M,66,Open,2,Сергій Чернишов,Oleksandrovich Serhiy,1991-08-08,ХДАФК,64.90,197.5,125,215,537.5,SBD,Raw
M,66,Open,3,Віктор Косюк,Viktor Kosyuk,2000-09-14,УжНУ,65.30,162.5,135,235,532.5,SBD,Raw
M,66,Open,4,Юрій Сіцінський,Yuri Sitsynskyi,2004-11-12,Dynamo gym,63.05,165,90,197.5,452.5,SBD,Raw
M,74,Open,1,Дмитро Біляк,Dmytro Bilyak,1994-04-10,,73.50,250.5,145,265,660.5,SBD,Raw
M,74,Open,2,Іван Наумов,Ivan Naumov #1,1997-12-22,,73.65,207.5,157.5,265,630,SBD,Raw
M,74,Open,3,Антон Караченцев,Anton Karachentsev,1983-04-09,,73.50,215,150,262.5,627.5,SBD,Raw
M,74,Open,4,Ігор Тімофтей,Ihor Timoftei,1986-10-03,Спортлайф,73.00,195,140,232.5,567.5,SBD,Raw
M,74,Open,5,Михайло Грищенко,Mykhailo Hryshchenko,1991-12-11,,73.10,200,125,235,560,SBD,Raw
M,74,Open,6,Роман Курочка,Roman Kurochka,2003-03-20,ХДАФК,73.60,195,132.5,200,527.5,SBD,Raw
M,74,Open,DQ,Артем Мануйленко,Artem Manuylenko,1988-01-13,WORKSHOP,72.15,177.5,120,182.5,,SBD,Raw
M,83,Open,1,Іван Король,Ivan Korol,1993-06-17,НУЛП,82.65,252.5,172.5,262.5,687.5,SBD,Raw
M,83,Open,2,Ілля Камінський,Ilya Kaminsky,1999-04-19,,81.75,235,155,285,675,SBD,Raw
M,83,Open,3,Володимир Добриднюк,Volodymyr Dobridnyuk,1986-10-17,,82.95,235,185,250,670,SBD,Raw
M,83,Open,4,Антон Уманський,Anton Umansky,1994-08-04,GYM4FIT,81.20,260,150,255,665,SBD,Raw
M,83,Open,5,Михайло Ткаченко,Mykhailo Tkachenko,1997-09-17,,81.40,230,142.5,265,637.5,SBD,Raw
M,83,Open,6,Антон Алєксєєв,Anton Alekseev #1,1986-09-17,,80.55,235,135,250,620,SBD,Raw
M,83,Open,7,Дмитро Брислав,Dmytro Bryslav,1998-11-07,,80.00,240,135,240,615,SBD,Raw
M,83,Open,8,Андрій Журавчак,Andriy Zhuravchak,1999-07-09,,80.60,210,177.5,227.5,615,SBD,Raw
M,83,Open,9,Вадим Резниченко,Vadim Reznychenko,1987-11-14,,82.85,215,150,250,615,SBD,Raw
M,83,Open,10,Владислав Гапанець,Vladyslav Hapanets,1997-05-22,Артемсіль,81.45,217.5,155,240,612.5,SBD,Raw
M,83,Open,11,Андрій Редько,Andrii Redko,1998-08-12,,81.20,225,130,250,605,SBD,Raw
M,83,Open,12,Олександр Кривуля,Oleksandr Kryvulya,1993-03-20,Bakhmutpower,78.25,180,127.5,230,537.5,SBD,Raw
M,83,Open,13,Роман Орищук,Roman Oryschuk,1997-11-11,Колізей,82.00,172.5,127.5,210,510,SBD,Raw
M,83,Open,14,Богдан Дрозд,Bohdan Drozd,1998-12-31,Yesport,81.50,185,130,175,490,SBD,Raw
M,83,Open,NS,Данило Скрипка,Danylo Skrypka,2002-07-25,,,,,,,SBD,Raw
M,93,Open,1,Михайло Чумак,Mykhailo Chumak,1995-07-25,ХДАФК,92.10,270,155,295,720,SBD,Raw
M,93,Open,2,Сергій Бабенко,Serhiy Babenko,1997-01-09,ХДАФК,92.45,255,157.5,300,712.5,SBD,Raw
M,93,Open,3,Сергій Шустур,Sergey Shustur,1989-10-30,Вайпер Джим,90.55,250,160,285,695,SBD,Raw
M,93,Open,4,Андрій Коротун,Andriy Korotun,1991-11-28,,92.45,225,170,300,695,SBD,Raw
M,93,Open,5,Микола Рощин,Mykola Roschyn,1998-12-20,,91.80,250,160,282.5,692.5,SBD,Raw
M,93,Open,6,Костянтин Стаханов,Kostyantyn Stakhanov,1982-03-29,,91.45,250,160,265,675,SBD,Raw
M,93,Open,7,Ігор Панченко,Ihor Panchenko,1981-06-04,VD POWER,91.30,232.5,167.5,270,670,SBD,Raw
M,93,Open,8,Сергій Сабов,Serhii Sabov,1999-10-20,DREAM GYM,89.85,230,160,265,655,SBD,Raw
M,93,Open,9,Сергій Сиротченко,Serhii Syrotchenko,1978-12-25,,91.00,225,140,270,635,SBD,Raw
M,93,Open,10,Віталій Фанта,Vitaly Fanta,1982-10-22,Вайпер Джим,88.50,247.5,135,250,632.5,SBD,Raw
M,93,Open,11,Валентин Логойко,Valentin Logoiko,1998-03-31,,92.25,245,152.5,235,632.5,SBD,Raw
M,93,Open,12,Олександр Мєх,Oleksandr Mekh,1995-12-17,Тандем,92.15,227.5,160,230,617.5,SBD,Raw
M,93,Open,13,Мирослав Лукеча,Myroslav Lukecha,1998-12-25,УжНУ,92.55,222.5,167.5,215,605,SBD,Raw
M,93,Open,14,Володимир Гетьман,Volodymyr Hetman,1995-02-07,УГСП,89.90,200,180,210,590,SBD,Raw
M,93,Open,15,Ілля Марей,Ilya Marey,1998-03-18,Power,93.00,225,145,220,590,SBD,Raw
M,93,Open,16,Олександр Найда,Oleksandr Naida,1988-05-04,VIP GYM,92.40,210,145,230,585,SBD,Raw
M,93,Open,17,Володимир Сухий,Volodymyr Sukhy,1992-07-30,,89.35,207.5,125,250,582.5,SBD,Raw
M,93,Open,18,Юрій Лялюк,Yuri Lyalyuk,1990-04-12,,91.70,200,140,235,575,SBD,Raw
M,93,Open,19,Андрій Колесніков,Andriy Kolesnikov,1996-12-05,,91.60,202.5,135,235,572.5,SBD,Raw
M,93,Open,20,Дмитро Маланчук,Dmytro Malanchuk,1996-05-21,,84.65,205,152.5,200,557.5,SBD,Raw
M,93,Open,21,Тарас Паламарчук,Taras Palamarchuk,1997-08-01,Yesport,90.85,190,130,220,540,SBD,Raw
M,93,Open,22,Олександр Щиголь,Oleksandr Shchygol,1990-06-15,GOLLGYM,90.70,190,115,190,495,SBD,Raw
M,93,Open,DQ,Андрій Ясінський,Andriy Yasinskyi,1992-09-08,ВИДИ СИЛОВІ,92.65,210,160,250,,SBD,Raw
M,105,Open,1,Анатолій Новописьменний,Anatoliy Novopysmennyi,1996-12-27,Олімп,104.20,365,225,350,940,SBD,Raw
M,105,Open,2,Дмитро Хайнус,Dmytro Khaynus,1993-11-08,Тирлич,103.55,267.5,187.5,285,740,SBD,Raw
M,105,Open,3,Тарас Горбаль,Taras Horbal,1993-02-15,Олімп,102.85,255,165,300,720,SBD,Raw
M,105,Open,4,Олег Дудченко,Oleg Dudchenko,1996-05-14,,93.85,265,165,280,710,SBD,Raw
M,105,Open,5,Данило Соболь,Danylo Sobol,1998-10-19,,102.80,272.5,160,257.5,690,SBD,Raw
M,105,Open,6,Олександр Домрачов,Oleksandr Domrachov,1993-01-13,,104.05,260,165,265,690,SBD,Raw
M,105,Open,7,Олег Кухар,Oleh Kukhar,1991-06-26,НУЛП,101.90,240,165,260,665,SBD,Raw
M,105,Open,8,Тарас Тимар,Taras Tymar,1991-02-25,Вайпер,103.95,245,170,250,665,SBD,Raw
M,105,Open,9,Євген Павлов,Evgeny Pavlov,1981-01-01,Yesport,103.45,240,167.5,250,657.5,SBD,Raw
M,105,Open,10,Андрій Рубан,Andriy Ruban,1999-01-27,Тітан,103.75,250,147.5,260,657.5,SBD,Raw
M,105,Open,11,Евгеній Качан,Yevhenii Kachan,1991-05-22,GOLLGYM,102.30,237.5,180,225,642.5,SBD,Raw
M,105,Open,12,Богдан Макар,Bohdan Makar,1999-08-05,Прометей,103.30,215,170,245,630,SBD,Raw
M,105,Open,13,Олександр Джумурат,Oleksandr Jumurat,1984-01-30,Вайпер,99.45,185,140,207.5,532.5,SBD,Raw
M,105,Open,NS,Василь Балаж,Vasyl Balazh,1988-03-15,,,,,,,SBD,Raw
M,105,Open,NS,Роман Онещук,Roman Oneshchuk,1989-03-21,,,,,,,SBD,Raw
M,120,Open,1,Владислав Комар,Vladyslav Komar,1995-05-12,,119.70,325,225,290,840,SBD,Raw
M,120,Open,2,Анатолій Немудрий,Anatoly Nemudriy,1989-08-05,Вітамін,117.20,305,207.5,297.5,810,SBD,Raw
M,120,Open,3,Олег Ковальчук,Oleg Kovalchuk,1987-06-15,Adrenalin,118.60,290,230,290,810,SBD,Raw
M,120,Open,4,Богдан Міговк,Bohdan Migovk,1989-06-16,Вайпер,107.10,280,162.5,320,762.5,SBD,Raw
M,120,Open,5,Денис Гангур,Denys Gangur,1996-11-02,,114.35,252.5,172.5,322.5,747.5,SBD,Raw
M,120,Open,6,Іван Нога,Ivan Noga,1991-10-21,Bakhmutpower,114.60,290,192.5,250,732.5,SBD,Raw
M,120,Open,7,Богдан Фельчин,Bogdan Felchyn,1992-12-26,КПНУ,119.60,255,172.5,270,697.5,SBD,Raw
M,120,Open,8,Сергій Машевський,Serhii Mashevsky,1991-02-25,Літіум,119.95,225,190,255,670,SBD,Raw
M,120,Open,9,Віталій Середюк,Vitaly Seredyuk,1990-01-11,Dynamo gym,110.85,225,145,270,640,SBD,Raw
M,120,Open,10,Михайло Лісін,Mykhailo Lisin,1985-09-11,,119.55,200,202.5,200,602.5,SBD,Raw
M,120+,Open,1,Дмитро Вовк,Dmytro Vovk,1996-01-04,,141.45,350,252.5,335,937.5,SBD,Raw
M,120+,Open,2,Андрій Детко,Andrii Detko,1999-12-09,,160.50,307.5,182.5,320,810,SBD,Raw
M,120+,Open,3,Олексій Литвинчук,Oleksiy Lytvynchuk,1986-04-21,,141.05,305,180,265,750,SBD,Raw
M,120+,Open,4,Роман Корсак,Roman Korsak,1980-07-28,УжНУ,125.75,255,135,265,655,SBD,Raw
F,47,Open,1,Оксана Мотрунчик,Oksana Motrunchyk,1992-08-06,Інтер Атлетика,46.64,95,67.5,143,305.5,SBD,Raw
F,47,Open,2,Ольга Індикова,Olha Indykova,1982-07-12,Прайд,46.84,90,52.5,120,262.5,SBD,Raw
F,47,Open,3,Тетяна Каланджій,Tetiana Kalandzhii,1998-02-14,Спортлайф,44.96,90,50,117.5,257.5,SBD,Raw
F,47,Open,4,Тетяна Лукачко,Tetiana Lukachko,1986-05-29,Вайпер Джим,42.90,77.5,40,102.5,220,SBD,Raw
F,52,Open,1,Вікторія Друзяка,Viktoriia Druziaka,1998-03-04,,51.38,157.5,90,150,397.5,SBD,Raw
F,52,Open,2,Ілона Ференц,Ilona Ferents,1996-01-25,Олімп,51.44,115,65,140,320,SBD,Raw
F,52,Open,3,Наталія Череменко,Nataliya Cheremenko,2001-12-26,,51.84,120,77.5,122.5,320,SBD,Raw
F,52,Open,4,Тетяна Давіденко,Tetiana Davidenko,1990-02-24,Maximus,50.60,87.5,80,110,277.5,SBD,Raw
F,52,Open,5,Тетяна Янович,Tetiana Yanovych,1991-12-31,Yesport,51.44,80,45,90,215,SBD,Raw
F,52,Open,DQ,Юлія Франасюк,Yuliia Franasiuk,1998-07-03,Олімп,50.42,120,67.5,110,,SBD,Raw
F,57,Open,1,Наталія Мага,Nataliia Maha,2001-06-12,УжНУ,56.94,147.5,75,157.5,380,SBD,Raw
F,57,Open,2,Ярина Король,Yaryna Korol,1988-09-25,НУЛП,56.82,132.5,85,157.5,375,SBD,Raw
F,57,Open,3,Аліна Цікул,Alina Tsikul,2001-10-14,,57.00,142.5,62.5,135,340,SBD,Raw
F,57,Open,4,Вікторія Василенко,Viktoriia Vasylenko,1998-02-27,,55.78,120,65,140,325,SBD,Raw
F,57,Open,5,Олеся Гангур,Olesia Hanhur,1997-03-18,,54.84,100,57.5,125,282.5,SBD,Raw
F,57,Open,6,Юлія Горяєва,Yuliia Horiaieva,1985-06-13,,54.56,82.5,55,112.5,250,SBD,Raw
F,57,Open,DQ,Анна Левченко,Anna Levchenko,1997-02-25,PULS GYM,56.64,137.5,67.5,132.5,,SBD,Raw
F,63,Open,1,Наталія Жуковська,Nataliia Zhukovska,1981-12-27,Статус,62.55,145,92.5,206,443.5,SBD,Raw
F,63,Open,2,Яна Аболіна,Yana Abolina,1996-07-24,,62.15,152.5,103,180,435.5,SBD,Raw
F,63,Open,3,Юлія Маліновська,Yuliia Malynovska,1984-12-02,,59.46,142.5,75,160,377.5,SBD,Raw
F,63,Open,4,Катерина Волькович,Kateryna Volkovych,1989-07-31,,60.20,110,55,145,310,SBD,Raw
F,69,Open,1,Дарія Іськів,Dariya Iskiv,1999-03-31,GO HARD,68.40,162.5,102.5,200,465,SBD,Raw
F,69,Open,2,Надія Ясинецька,Nadiia Yasynetska,1991-05-22,Yesport,67.05,85,55,115,255,SBD,Raw
F,69,Open,3,Оксана Судома,Oksana Sudoma,1985-06-22,,65.70,80,57.5,107.5,245,SBD,Raw
F,76,Open,1,Людмила Бичок,Liudmyla Bychok,1990-09-26,Титан,75.95,188,115,212,515,SBD,Raw
F,76,Open,2,Уляна Лютник,Uliana Liutnyk,1984-02-03,Локомотив,74.15,155,75,175,405,SBD,Raw
F,84,Open,1,Ірина Кісь,Iryna Kis,1993-09-03,НУЛП,76.30,160,92.5,170,422.5,SBD,Raw
F,84,Open,2,Марія Зінченко,Mariia Zinchenko,1999-11-27,,76.95,170,97.5,150,417.5,SBD,Raw
F,84,Open,3,Альона Борщевська,Alona Borshchevska,1999-07-28,,77.25,140,70,132.5,342.5,SBD,Raw
F,84+,Open,1,Вікторія Поліщук,Viktoriia Polishchuk,1985-10-06,,103.95,152.5,112.5,165,430,SBD,Raw
F,84+,Open,2,Віра Говтова,Vira Hovtova,1977-10-12,Локомотив,102.40,150,105,167.5,422.5,SBD,Raw
F,47,Juniors,1,Валерія Мустафіна,Valeriia Mustafina,2004-01-04,,46.60,87.5,55,127.5,270,SBD,Raw
F,47,Juniors,2,Іуліанія Самборська,Iulianiia Samborska,2000-06-27,Power,46.50,57.5,37.5,72.5,167.5,SBD,Raw
F,52,Juniors,1,Анастасія Сердюк,Anastasiia Serdiuk,2004-09-11,,51.92,110,72.5,135,317.5,SBD,Raw
F,52,Juniors,2,Мирослава Кошелик,Myroslava Koshelyk,2003-01-09,Trident Power,51.58,60,55,80,195,SBD,Raw
F,57,Juniors,1,Наталія Мага,Nataliia Maha,2001-06-12,УжНУ,56.88,130,70,130,330,SBD,Raw
F,57,Juniors,2,Емілія Татарин,Emiliia Tataryn,2001-07-18,Олімп,53.34,90,52.5,100,242.5,SBD,Raw
F,63,Juniors,1,Єлизавета Свідерська,Yelyzaveta Sviderska,2004-05-01,Рось,60.10,117.5,70,127.5,315,SBD,Raw
F,63,Juniors,2,Олена Шаталова,Olena Shatalova,2002-09-23,,60.90,100,62.5,127.5,290,SBD,Raw
F,63,Juniors,3,Анастасія Култигіна,Anastasiia Kultyhina,2002-01-03,Прайд,59.64,85,55,112.5,252.5,SBD,Raw
F,69,Juniors,1,Олександра Борщ,Oleksandra Borshch,2004-06-29,,68.55,150,77.5,140,367.5,SBD,Raw
F,69,Juniors,2,Олеся Янович,Olesia Yanovych,2001-02-23,УжНУ,68.20,90,55,105,250,SBD,Raw
F,69,Juniors,3,Анастасія Моренко,Anastasiia Morenko,2000-05-08,Bakhmutpower,65.65,80,35,100,215,SBD,Raw
F,76,Juniors,1,Наталія Кузіна,Nataliia Kuzina,2004-09-08,WORKSHOP,74.40,132.5,75,130,337.5,SBD,Raw
F,84,Juniors,1,Софія Абразумова,Sofiia Abrazumova,2003-08-03,Декор,80.45,92.5,55,130,277.5,SBD,Raw
F,84+,Juniors,1,Віра Попруга,Vira Popruha,2003-09-23,Power,132.50,145,77.5,147.5,370,SBD,Raw
F,57,Masters 1,1,Ірина Сенкевич,Iryna Senkevych,1980-01-10,Вайпер Джим,56.26,102.5,57.5,122.5,282.5,SBD,Raw
F,63,Masters 1,1,Ганна Ревука,Hanna Revuka,1979-02-04,,61.05,77.5,62.5,90,230,SBD,Raw
F,69,Masters 1,1,Світлана Євченко,Svitlana Yevchenko,1977-06-07,Авалон,64.50,115.5,60.5,137.5,313.5,SBD,Raw
F,76,Masters 1,1,Алла Білан,Alla Bilan,1977-06-24,Тандем,71.90,97.5,50,127.5,275,SBD,Raw
F,84,Masters 1,1,Вікторія Паламарчук,Viktoriia Palamarchuk,1976-02-29,,81.15,80,52.5,110,242.5,SBD,Raw
F,43,Sub-Juniors,1,Валерія Конюхова,Valeriia Koniukhova,2005-05-29,Політехніка,42.10,80,42.5,105,227.5,SBD,Raw
F,43,Sub-Juniors,2,Христина Уляник,Khrystyna Ulianyk,2005-10-30,,38.18,70,40,90,200,SBD,Raw
F,47,Sub-Juniors,1,Яна Жила,Yana Zhyla,2007-11-09,,45.98,60,32.5,75,167.5,SBD,Raw
F,52,Sub-Juniors,1,Тетяна Музиченко,Tetiana Muzychenko,2005-06-22,Power,49.82,110,65,115,290,SBD,Raw
F,52,Sub-Juniors,2,Діана Лаврусь,Diana Lavrus,2007-11-01,,52.00,92.5,50,117.5,260,SBD,Raw
F,52,Sub-Juniors,3,Юлія Мудренко,Yuliia Mudrenko,2005-08-25,,50.88,82.5,45,100,227.5,SBD,Raw
F,52,Sub-Juniors,4,Оксана Дмитренко,Oksana Dmytrenko,2007-09-18," КЗ",51.76,87.5,47.5,92.5,227.5,SBD,Raw
F,52,Sub-Juniors,5,Злата Проценко,Zlata Protsenko,2008-09-02,Yesport,52.00,72.5,45,90,207.5,SBD,Raw
F,52,Sub-Juniors,NS,Діана Теплюх,Diana Tepliukh,2007-05-14,,,,,,,SBD,Raw
F,57,Sub-Juniors,1,Тетяна Петренко,Tetiana Petrenko,2007-06-21,,56.18,117.5,77.5,146,341,SBD,Raw
F,57,Sub-Juniors,2,Вероніка Чергіна,Veronika Cherhina,2007-05-06,Прайд,53.86,92.5,47.5,97.5,237.5,SBD,Raw
F,57,Sub-Juniors,3,Олександра Кононова,Oleksandra Kononova,2007-06-03,,55.86,92.5,45,97.5,235,SBD,Raw
F,57,Sub-Juniors,4,Альона Терещенко,Alona Tereshchenko,2005-03-02,,56.16,82.5,45,100,227.5,SBD,Raw
F,57,Sub-Juniors,5,Богдана Лавринович,Bohdana Lavrynovych,2007-11-14,Yesport,55.60,85,47.5,90,222.5,SBD,Raw
F,63,Sub-Juniors,1,Софія Станько,Sofiya Stanko,2006-09-12,,59.90,130,80,135,345,SBD,Raw
F,63,Sub-Juniors,2,Дарина Сердюк,Daryna Serdiuk,2005-10-11,Прайд,61.40,112.5,45,127.5,285,SBD,Raw
F,63,Sub-Juniors,3,Даніела Летуновська,Daniela Letunovska,2006-05-30,Прометей,59.86,102.5,60,112.5,275,SBD,Raw
F,63,Sub-Juniors,4,Зоряна Шев'як,Zoriana Sheviak,2008-08-13,Декор,59.04,82.5,45,100,227.5,SBD,Raw
F,69,Sub-Juniors,1,Домініка Атаєва,Dominika Ataieva,2007-01-21,Power,68.20,92.5,70,100,262.5,SBD,Raw
F,69,Sub-Juniors,2,Вікторія Дьяченко,Viktoriia Diachenko,2007-12-22,,64.50,87.5,45,97.5,230,SBD,Raw
F,69,Sub-Juniors,3,Софія Рожик,Sofiia Rozhyk,2008-07-07,,63.30,82.5,47.5,85,215,SBD,Raw
F,69,Sub-Juniors,4,Арина Сабрєкова,Aryna Sabriekova,2008-07-29,Прайд,65.15,72.5,37.5,82.5,192.5,SBD,Raw
F,76,Sub-Juniors,1,Олександра Попадюк,Oleksandra Popadiuk,2006-09-29,,75.75,100,57.5,122.5,280,SBD,Raw
F,76,Sub-Juniors,2,Софія Колесник,Sofiia Kolesnyk,2006-05-05,,69.40,100,47.5,107.5,255,SBD,Raw
F,76,Sub-Juniors,3,Марія Рузматова,Mariia Ruzmatova,2006-06-17,LEGION,71.40,90,45,95,230,SBD,Raw
M,53,Juniors,1,Максим Гончарук,Maksym Honcharuk,2003-11-15,,52.56,105,70,155,330,SBD,Raw
M,59,Juniors,1,Роман Курчицький,Roman Kurchytskyi,2002-11-27,Декор,58.16,125,95,165,385,SBD,Raw
M,59,Juniors,2,Єгор Віблий,Yehor Viblyi,2002-11-14,Power,58.76,137.5,97.5,140,375,SBD,Raw
M,59,Juniors,3,Назар Чичотка,Nazar Chychotka,2001-08-21,ХДАФК,58.74,137.5,90,145,372.5,SBD,Raw
M,66,Juniors,1,Віктор Косюк,Viktor Kosiuk,2000-09-14,УжНУ,65.35,162.5,135,243,540.5,SBD,Raw
M,66,Juniors,2,Ростислав Бабюк,Rostyslav Babiuk,2000-06-28,Локомотив,65.80,165,112.5,185,462.5,SBD,Raw
M,74,Juniors,1,Юрій Ревука,Yuriy Revuka,2000-02-19,,71.90,225,150,235,610,SBD,Raw
M,74,Juniors,2,Павло Семенюта,Pavlo Semeniuta,2002-08-04,КІПНУ,73.80,200,130,240,570,SBD,Raw
M,74,Juniors,3,Ігор Побережний,Ihor Poberezhnyi,2001-07-30,,73.00,210,135,210,555,SBD,Raw
M,74,Juniors,4,Назар Багрій,Nazar Bahrii,2003-10-05,Прометей,73.25,192.5,135,220,547.5,SBD,Raw
M,74,Juniors,5,Дмитро Сельнічек,Dmytro Selnichek,2000-10-30,Powerlift,73.65,207.5,125,215,547.5,SBD,Raw
M,74,Juniors,6,Василь Бережний,Vasyl Berezhnyi,2000-12-12,,73.55,180,147.5,207.5,535,SBD,Raw
M,74,Juniors,7,Євгеній Матієшин,Yevhenii Matiieshyn,2003-09-18,,74.00,195,120,220,535,SBD,Raw
M,74,Juniors,8,Роман Курочка,Roman Kurochka,2003-03-20,ХДАФК,73.15,202.5,130,200,532.5,SBD,Raw
M,74,Juniors,9,Владислав Бончак,Vladyslav Bonchak,2003-05-05,,72.00,190,115,195,500,SBD,Raw
M,74,Juniors,10,Андрій Бєлоусов,Andrii Bielousov,2003-04-13,,72.65,175,115,195,485,SBD,Raw
M,74,Juniors,11,Данило Чумак,Danylo Chumak,2003-06-07,,71.90,150,90,155,395,SBD,Raw
M,83,Juniors,1,Максим Скрипкін,Maksym Skrypkin,2002-06-06,ХДАФК,82.10,230,142.5,270,642.5,SBD,Raw
M,83,Juniors,2,Владислав Головко,Vladyslav Holovko,2001-04-20,VS GYM,82.40,220,150,270,640,SBD,Raw
M,83,Juniors,3,Микита Марей,Mykyta Marei,2002-02-25,Power,78.60,205,125,225,555,SBD,Raw
M,83,Juniors,4,Владислав Чемерис,Vladyslav Chemerys,2004-05-16,Локомотив,82.05,207.5,130,195,532.5,SBD,Raw
M,83,Juniors,5,Анатолій Матвєєв,Anatolii Matvieiev,2001-09-26,Прометей,82.05,177.5,125,225,527.5,SBD,Raw
M,83,Juniors,6,Марк Махно,Mark Makhno,2003-05-20,Power,82.05,192.5,105,202.5,500,SBD,Raw
M,83,Juniors,7,Іван Петрусь,Ivan Petrus,2004-01-28,,76.55,165,82.5,170,417.5,SBD,Raw
M,83,Juniors,DQ,Владислав Пухтій,Vladyslav Pukhtii,2001-02-02,,81.70,180,105,180,,SBD,Raw
M,93,Juniors,1,Майкол Фатнассі,Maikol Fatnassi,2000-05-31,Powerlift,91.80,220,140,230,590,SBD,Raw
M,93,Juniors,2,Дмитро Ткаченко,Dmytro Tkachenko,2002-11-08,,89.30,202.5,140,205,547.5,SBD,Raw
M,93,Juniors,3,Юрій Кушнір,Yurii Kushnir,2003-05-06,,91.00,205,115,195,515,SBD,Raw
M,93,Juniors,DQ,Тимофій Рурич,Tymofii Rurych,2003-02-04,Dynamo gym,,,,,,SBD,Raw
M,93,Juniors,DQ,Артур Юркевич,Artur Yurkevych,2002-07-22,Олімп,90.50,207.5,140,225,,SBD,Raw
M,105,Juniors,1,Олександр Скидан,Oleksandr Skydan,2001-03-23,Power Inside,98.55,255,150,265,670,SBD,Raw
M,105,Juniors,2,Андрій Галан,Andrii Halan,2003-12-12,,100.20,240,170,250,660,SBD,Raw
M,105,Juniors,3,Вадим Роздорожний,Vadym Rozdorozhnyi,2003-10-19,,103.00,225,167.5,250,642.5,SBD,Raw
M,120,Juniors,1,Тарас Мельничук,Taras Melnichuk,2001-03-25,Локомотив,117.60,310,220,330.5,860.5,SBD,Raw
M,120,Juniors,2,Ілля Ковач,Illia Kovach,2003-08-01,,115.20,265,185,275,725,SBD,Raw
M,120,Juniors,3,Віталій Крук,Vitalii Kruk,2004-12-24,Прометей,117.85,225,150,240,615,SBD,Raw
M,120,Juniors,4,Іван Калитчук,Ivan Kalytchuk,2000-03-17,,106.55,190,165,220,575,SBD,Raw
M,120,Juniors,5,Віталій Сердюков,Vitalii Serdiukov,2002-09-05,Yesport,109.00,160,85,190,435,SBD,Raw
M,120+,Juniors,1,Владислав Мазурик,Vladyslav Mazuryk,2004-09-24,Олімп,135.50,110,85,140,335,SBD,Raw
M,74,Masters 1,1,Олександр Соколов,Oleksandr Sokolov,1979-03-07,,73.35,197.5,120,215,532.5,SBD,Raw
M,83,Masters 1,1,Ростислав Полонський,Rostyslav Polonskyi,1978-10-22,,81.95,200,135,245,580,SBD,Raw
M,83,Masters 1,2,Олександр Горбенко,Oleksandr Horbenko,1977-06-22,PULS GYM,82.70,195,135,230,560,SBD,Raw
M,83,Masters 1,DQ,Микола Балникін,Mykola Balnykin,1980-07-31,Bakhmutpower,,,,,,SBD,Raw
M,93,Masters 1,1,Костянтин Стаханов,Kostiantyn Stakhanov,1982-03-29,,91.45,240,160,260,660,SBD,Raw
M,93,Masters 1,2,Євген Константінов,Yevhen Konstantinov,1977-11-24,,92.20,242.5,140,250,632.5,SBD,Raw
M,93,Masters 1,3,Ілля Петренко,Illia Petrenko,1983-04-28,,92.85,190,135,232.5,557.5,SBD,Raw
M,105,Masters 1,1,Дмитро Рудніцький,Dmytro Rudnitskyi,1978-10-20,Тандем,104.50,255,157.5,260,672.5,SBD,Raw
M,105,Masters 1,2,Олег Скакун,Oleh Skakun,1982-01-16,,104.65,217.5,170,245,632.5,SBD,Raw
M,105,Masters 1,3,Ігор Ромащенко,Ihor Romashchenko,1980-12-30,FORMAT 1,103.90,240,142.5,220,602.5,SBD,Raw
M,105,Masters 1,4,Вадим Ревуцький,Vadym Revutskyi,1978-09-27,Monolit,96.10,210,135,240,585,SBD,Raw
M,105,Masters 1,5,Роман Захарко,Roman Zakharko,1983-10-13,,96.85,190,120,230,540,SBD,Raw
M,105,Masters 1,DQ,Віктор Черкашенінов,Viktor Cherkasheninov,1977-06-21,КПД,,,,,,SBD,Raw
M,105,Masters 1,DQ,Сергій Бакумов,Serhii Bakumov,1979-12-13,Богатир,105.00,190,,,,SBD,Raw
M,120,Masters 1,1,Віталій Тимченко,Vitalii Tymchenko,1975-07-21,,115.40,240,180,240,660,SBD,Raw
M,120+,Masters 1,1,Юрій Руденко,Yurii Rudenko,1977-05-08,Monolit,123.35,200,130,225,555,SBD,Raw
M,74,Masters 2,1,Сергій Зайцев,Serhii Zaitsev,1968-10-18,,73.85,172,125,197,494,SBD,Raw
M,74,Masters 2,2,Олег Федоренко,Oleh Fedorenko,1972-01-18,PULS GYM,72.05,135,82.5,165,382.5,SBD,Raw
M,93,Masters 2,1,Юрій Чернявський,Yurii Cherniavskyi,1972-03-02,,92.50,225,157.5,247.5,630,SBD,Raw
M,93,Masters 2,2,Віталій Місютинський,Vitalii Misiutynskyi,1967-09-02,,91.85,225,145,250,620,SBD,Raw
M,93,Masters 2,3,Федір Бахманов,Fedir Bakhmanov,1970-07-01,Monolit,89.80,160,140,200,500,SBD,Raw
M,105,Masters 2,1,Михайло Кірсанов,Mykhailo Kirsanov,1971-02-14,Bakhmutpower,101.80,170,117.5,185,472.5,SBD,Raw
M,105,Masters 2,2,Віктор Погребінський,Viktor Pohrebinskyi,1968-04-28,,103.30,130,120,150,400,SBD,Raw
M,105,Masters 2,3,Олег Туляков,Oleh Tuliakov,1970-01-24,СУМДУ,97.10,140,90,165,395,SBD,Raw
M,120,Masters 2,1,Юрій Мирошниченко,Yurii Myroshnychenko,1971-12-02,ХНУМГ,111.70,195,155,205,555,SBD,Raw
M,120,Masters 2,2,Іван Стефанчук,Ivan Stefanchuk,1970-03-19,Giants Gym,117.65,200,135,205,540,SBD,Raw
M,53,Sub-Juniors,1,Павло Джураєв,Pavlo Dzhuraiev,2006-10-10,,52.64,145,95,162.5,402.5,SBD,Raw
M,53,Sub-Juniors,2,Станіслав Яременко,Stanislav Yaremenko,2007-02-06,Декор,52.46,130,102.5,152.5,385,SBD,Raw
M,53,Sub-Juniors,3,Віктор Ревука,Viktor Revuka,2007-04-24,,52.50,135,77.5,137.5,350,SBD,Raw
M,53,Sub-Juniors,4,Микола Кирда,Mykola Kyrda,2006-05-19,Прометей,52.94,107.5,70,127.5,305,SBD,Raw
M,53,Sub-Juniors,5,Богдан Карплюх,Bohdan Karpliukh,2008-12-14,,53.00,102.5,70,110,282.5,SBD,Raw
M,53,Sub-Juniors,6,Максим Мазурок,Maksym Mazurok,2007-06-23,,51.04,110,62.5,105,277.5,SBD,Raw
M,53,Sub-Juniors,7,Михайло Селецький,Mykhailo Seletskyi,2008-11-16,Прометей,50.22,95,72.5,100,267.5,SBD,Raw
M,53,Sub-Juniors,8,Єгор Чорний,Yehor Chornyi,2009-01-20,LEGION,51.70,92.5,52.5,120,265,SBD,Raw
M,53,Sub-Juniors,9,Назар Головецький,Nazar Holovetskyi,2009-07-22,Декор,49.54,82.5,47.5,102.5,232.5,SBD,Raw
M,53,Sub-Juniors,10,Олексій Тимчишин,Oleksii Tymchyshyn,2009-03-02,,51.38,75,42.5,75,192.5,SBD,Raw
M,59,Sub-Juniors,1,Артур Ящук,Artur Yashchuk,2007-01-02,,57.80,140,75,192.5,407.5,SBD,Raw
M,59,Sub-Juniors,2,Артемій Джуган,Artemii Dzhuhan,2006-11-02,,57.60,145,90,160,395,SBD,Raw
M,59,Sub-Juniors,3,Микола Крисько,Mykola Krysko,2007-05-22,,58.70,142.5,87.5,152.5,382.5,SBD,Raw
M,59,Sub-Juniors,4,Дмитро Трухін,Dmytro Trukhin,2005-11-17,,58.85,125,87.5,162.5,375,SBD,Raw
M,59,Sub-Juniors,5,Олексій Дражук,Oleksii Drazhuk,2007-05-28,,58.14,125,72.5,165,362.5,SBD,Raw
M,59,Sub-Juniors,6,Максим Іванійчук,Maksym Ivaniichuk,2006-12-26,Giants Gym,57.00,110,77.5,152.5,340,SBD,Raw
M,59,Sub-Juniors,7,Роман Микитчук,Roman Mykytchuk,2007-12-01,,55.20,105,65,145,315,SBD,Raw
M,59,Sub-Juniors,8,Олексій Бичков,Oleksii Bychkov,2009-06-22,КПД,55.00,105,57.5,117.5,280,SBD,Raw
M,59,Sub-Juniors,9,Дмитро Єременко,Dmytro Yeremenko,2009-11-23,,57.28,95,60,92.5,247.5,SBD,Raw
M,59,Sub-Juniors,NS,Станіслав Шодринга,Stanislav Shodrynha,2007-01-15,,,,,,,SBD,Raw
M,66,Sub-Juniors,1,Дмитро Бутенко,Dmytro Butenko,2005-06-05,,64.55,200,102.5,207.5,510,SBD,Raw
M,66,Sub-Juniors,2,Олексій Юхимов,Oleksii Yukhymov,2005-06-03,,65.55,170,95,200,465,SBD,Raw
M,66,Sub-Juniors,3,Богдан Гончаренко,Bohdan Honcharenko,2006-12-08,,65.35,150,105,180,435,SBD,Raw
M,66,Sub-Juniors,4,Дмитро Бахур,Dmytro Bakhur,2005-11-08,ДЮКФП,61.25,135,92.5,155,382.5,SBD,Raw
M,66,Sub-Juniors,5,Олександр Руденко,Oleksandr Rudenko,2007-05-22,Бастіон,64.65,135,80,160,375,SBD,Raw
M,66,Sub-Juniors,6,Микола Грева,Mykola Hreva,2005-12-19,Бастіон,62.15,127.5,97.5,142.5,367.5,SBD,Raw
M,66,Sub-Juniors,7,Андрій Слесаренко,Andrii Slesarenko,2007-04-04,Прометей,65.25,127.5,72.5,125,325,SBD,Raw
M,66,Sub-Juniors,8,Денис Саєнко,Denys Saienko,2006-01-05,,60.05,110,70,110,290,SBD,Raw
M,74,Sub-Juniors,1,Владислав Білоус,Vladyslav Bilous,2006-07-05,,73.90,233,117.5,230,580.5,SBD,Raw
M,74,Sub-Juniors,2,Максим Баглай,Maksym Bahlai,2005-03-24,Grand Gym,72.85,180,145,220,545,SBD,Raw
M,74,Sub-Juniors,3,Максим Бурлак,Maksym Burlak,2005-06-25,,73.30,185,112.5,230,527.5,SBD,Raw
M,74,Sub-Juniors,4,Вадим Безпрозваний,Vadym Bezprozvanyi,2005-01-05,,73.50,215,112.5,200,527.5,SBD,Raw
M,74,Sub-Juniors,5,В'ячеслав Ганусяк,Viacheslav Hanusiak,2005-02-25,Прометей,71.15,180,110,190,480,SBD,Raw
M,74,Sub-Juniors,6,Володимир Романюк,Volodymyr Romaniuk,2006-06-05,Локомотив,72.25,165,100,182.5,447.5,SBD,Raw
M,74,Sub-Juniors,7,Олег Зубрицький,Oleh Zubrytskyi,2008-07-17,Прометей,72.15,152.5,97.5,180,430,SBD,Raw
M,74,Sub-Juniors,8,Нікіта Смірнов,Nikita Smirnov #2,2006-05-17,,73.10,157.5,95,170,422.5,SBD,Raw
M,74,Sub-Juniors,9,Денис Шипілов,Denys Shypilov,2008-07-13,,71.80,142.5,95,160,397.5,SBD,Raw
M,74,Sub-Juniors,10,Євген Лайко,Yevhen Laiko,2006-11-08,LEGION,69.90,130,80,135,345,SBD,Raw
M,83,Sub-Juniors,1,Владислав Лісовик,Vladyslav Lisovyk,2006-05-15,Імпульс,81.65,190,150,235,575,SBD,Raw
M,83,Sub-Juniors,2,Михайло Кость,Mykhailo Kost,2007-02-21,,80.25,180,122.5,197.5,500,SBD,Raw
M,83,Sub-Juniors,3,Віталій Комаха,Vitalii Komakha,2007-06-07,,82.65,180,120,195,495,SBD,Raw
M,83,Sub-Juniors,4,Родіон Воронін,Rodion Voronin,2006-04-13,,79.55,177.5,140,170,487.5,SBD,Raw
M,83,Sub-Juniors,5,Ігор Даців,Ihor Datsiv,2007-02-08,,82.25,165,100,202.5,467.5,SBD,Raw
M,83,Sub-Juniors,6,Володимир Пугач,Volodymyr Puhach,2006-11-02,Bakhmutpower,80.15,182.5,102.5,180,465,SBD,Raw
M,83,Sub-Juniors,7,Максим Беседін,Maksym Besedin,2006-07-18,,78.25,170,112.5,180,462.5,SBD,Raw
M,83,Sub-Juniors,8,Максим Скерлет,Maksym Skerlet,2006-11-10,,77.55,170,90,185,445,SBD,Raw
M,83,Sub-Juniors,9,Ярослав Николайчук,Yaroslav Nykolaichuk,2005-05-19,,82.75,152.5,125,155,432.5,SBD,Raw
M,83,Sub-Juniors,10,Максим Пасемко,Maksym Pasemko,2006-03-13,,81.05,160,100,167.5,427.5,SBD,Raw
M,83,Sub-Juniors,DQ,Іван Маліченко,Ivan Malichenko,2006-09-25,,82.10,167.5,90,175,,SBD,Raw
M,93,Sub-Juniors,1,Ігор Зінов'єв,Ihor Zinoviev,2006-08-13,Powerlift,87.70,215,122.5,245,582.5,SBD,Raw
M,93,Sub-Juniors,2,Олександр Рогозін,Oleksandr Rohozin,2006-11-14,,91.05,185,112.5,210,507.5,SBD,Raw
M,93,Sub-Juniors,3,Іван Трунов,Ivan Trunov #1,2006-12-18,Bakhmutpower,86.05,175,105,195,475,SBD,Raw
M,93,Sub-Juniors,4,Даніїл Боронін,Daniil Boronin,2005-01-31,Yesport,89.85,155,105,190,450,SBD,Raw
M,93,Sub-Juniors,5,Максим Пересипкін,Maksym Peresypkin,2006-01-17,Bakhmutpower,91.60,145,105,160,410,SBD,Raw
M,93,Sub-Juniors,6,Максим Борщ,Maksym Borshch,2007-05-18,,89.30,147.5,87.5,160,395,SBD,Raw
M,93,Sub-Juniors,7,Денис Косик,Denys Kosyk,2007-04-05,,84.25,150,95,145,390,SBD,Raw
M,93,Sub-Juniors,8,Іван Лагно,Ivan Lahno,2008-02-24,,85.40,150,80,75,305,SBD,Raw
M,105,Sub-Juniors,1,Олександр Пивоварчук,Oleksandr Pyvovarchuk,2006-09-09,Імпульс,94.50,180,140,195,515,SBD,Raw
M,105,Sub-Juniors,2,Роман Голобутовський,Roman Holobutovskyi,2006-03-16,,103.50,190,100,202.5,492.5,SBD,Raw
M,105,Sub-Juniors,3,Дмитро Мартинюк,Dmytro Martyniuk,2005-09-18,Рось,95.75,190,120,180,490,SBD,Raw
M,105,Sub-Juniors,4,Дмитро Сітніков,Dmytro Sitnikov,2005-06-03,,93.55,165,105,190,460,SBD,Raw
M,105,Sub-Juniors,5,Богдан Ілюченко,Bohdan Iliuchenko,2005-03-14,ДЮКФП,93.30,152.5,122.5,170,445,SBD,Raw
M,120,Sub-Juniors,1,Денис Шаргородський,Denys Sharhorodskyi,2005-09-12,,119.95,260.5,150,240,650.5,SBD,Raw
M,120,Sub-Juniors,2,Нікіта Андрієвський,Nikita Andriievskyi,2005-06-05,,117.00,240,135,250,625,SBD,Raw
M,120,Sub-Juniors,3,Назар Максим,Nazar Maksym,2005-06-06,Декор,115.35,230,110,240,580,SBD,Raw
M,120,Sub-Juniors,4,Максим Глиняний,Maksym Hlynianyi,2005-06-19,,114.50,145,122.5,187.5,455,SBD,Raw
M,120+,Sub-Juniors,1,Ярослав Баб'як,Yaroslav Babiak,2006-12-23,,129.75,235,160,230,625,SBD,Raw
M,120+,Sub-Juniors,2,Емін Урсол,Emin Ursol,2006-06-07,,134.10,237.5,130,232.5,600,SBD,Raw
M,59,Student,1,Роман Курчицький,Roman Kurchytskyi,2002-11-27,,58.28,122.5,92.5,172.5,387.5,SBD,Raw
M,59,Student,2,Назар Чичотка,Nazar Chychotka,2001-08-21,КДЮСШ №9 ХМР,58.70,140,95,152.5,387.5,SBD,Raw
M,59,Student,3,Олег Щекальов,Oleh Shchekalov,2003-11-14,,59.00,155,70,147.5,372.5,SBD,Raw
M,66,Student,1,Юрій Сіцінський,Yurii Sitsinskyi,2004-11-12,ДЮСШ №3 Спартак,63.05,165,90,197.5,452.5,SBD,Raw
M,66,Student,2,Олександр Шулепа,Oleksandr Shulepa,2004-01-11,,65.70,167.5,92.5,187.5,447.5,SBD,Raw
M,66,Student,3,Костянтин Бондаренко,Kostiantyn Bondarenko,2003-11-18,,65.05,140,107.5,170,417.5,SBD,Raw
M,74,Student,1,Віктор Головченко,Viktor Holovchenko,1994-11-27,,73.15,190,145,212.5,547.5,SBD,Raw
M,74,Student,2,Василь Бережний,Vasyl Berezhnyi,2000-12-12,,73.05,185,155,205,545,SBD,Raw
M,74,Student,3,Роман Курочка,Roman Kurochka,2003-03-20,ДЮСШ ХО,73.60,195,132.5,200,527.5,SBD,Raw
M,74,Student,4,Антон Слабко,Anton Slabko,2001-01-21,Спартаківець,72.60,177.5,120,205,502.5,SBD,Raw
M,83,Student,1,Андрій Журавчак,Andrii Zhuravchak,1999-07-09,,80.60,210,177.5,227.5,615,SBD,Raw
M,83,Student,2,Анатолій Матвєєв,Anatolii Matvieiev,2001-09-26,,82.00,172.5,130,230,532.5,SBD,Raw
M,83,Student,3,Рустам Фаброван,Rustam Fabrovan,2001-12-17,,78.20,167.5,115,170,452.5,SBD,Raw
M,83,Student,4,Іван Гриценко,Ivan Hrytsenko,2001-07-07,,80.30,140,117.5,175,432.5,SBD,Raw
M,83,Student,5,Олександр Бабишен,Oleksandr Babyshen,2003-12-20,,76.40,147.5,95,145,387.5,SBD,Raw
M,83,Student,NS,Максим Скрипкін,Maksym Skrypkin,2002-06-06,ДЮСШ ХО,,,,,,SBD,Raw
M,93,Student,1,Мирослав Лукеча,Myroslav Lukecha,1998-12-25,,92.55,222.5,167.5,215,605,SBD,Raw
M,93,Student,2,Володимир Гетьман,Volodymyr Hetman,1995-02-07,,89.90,200,180,210,590,SBD,Raw
M,93,Student,3,Ігор Єрис,Ihor Yerys,2002-10-02,КДЮСШ Вікторія,89.05,197.5,110,245,552.5,SBD,Raw
M,93,Student,4,Артем Матвієнко,Artem Matviienko,2004-08-31,,91.80,190,95,207.5,492.5,SBD,Raw
M,105,Student,1,Андрій Галан,Andrii Halan,2003-12-12,,100.70,255,175,250,680,SBD,Raw
M,105,Student,2,Руслан Неманіхін,Ruslan Nemanikhin,1992-12-06,,102.50,230,145,230,605,SBD,Raw
M,105,Student,3,Артем Єрис,Artem Yerys,2001-06-04,КДЮСШ Вікторія,103.95,210,140,220,570,SBD,Raw
M,120,Student,1,Богдан Фельчин,Bohdan Felchyn,1992-12-26,,119.60,255,172.5,270,697.5,SBD,Raw
M,120,Student,2,Вадим Роздорожний,Vadym Rozdorozhnyi,2003-10-19,,105.35,245,165,250,660,SBD,Raw
M,120,Student,3,Олександр Нарватов,Oleksandr Narvatov,2002-06-06,,105.30,205,180,215,600,SBD,Raw
M,120,Student,DQ,Павло Бондур,Pavlo Bondur,2000-09-11,КДЮСШ Вікторія,108.75,190,130,,,SBD,Raw
F,52,Student,1,Мирослава Кошелик,Myroslava Koshelyk,2003-01-09,,51.28,70,60,110,240,SBD,Raw
F,52,Student,2,Яна Ніколаєнко,Yana Nikolaienko,2001-03-03,Спартаківець,51.42,80,52.5,102.5,235,SBD,Raw
F,52,Student,3,Лариса Пилюк,Larysa Pyliuk,2002-09-20,,50.14,72.5,50,100,222.5,SBD,Raw
F,57,Student,1,Наталія Мага,Nataliia Maha,2001-06-12,,56.94,147.5,75,157.5,380,SBD,Raw
F,57,Student,2,Вікторія Костюк,Viktoriia Kostiuk,2002-02-03,,57.00,80,55,90,225,SBD,Raw
F,63,Student,1,Марія Грігорян,Mariia Hrihorian,2005-09-22,,61.90,87.5,40,97.5,225,SBD,Raw
F,63,Student,2,Інна Пилипчук,Inna Pylypchuk,2005-03-24,,58.10,80,45,95,220,SBD,Raw
F,69,Student,1,Олеся Янович,Olesia Yanovych,2001-02-23,,68.15,95,60,105,260,SBD,Raw
F,76,Student,1,Людмила Бичок,Liudmyla Bychok,1990-09-26,,75.95,188,115,212,515,SBD,Raw
F,84,Student,1,Софія Абразумова,Sofiia Abrazumova,2003-08-03,,80.40,90,57.5,127.5,275,SBD,Raw
F,84,Student,2,Анна Кірстюк,Anna Kirstiuk,2004-06-25,,83.15,122.5,35,112.5,270,SBD,Raw
F,84+,Student,1,Віра Попруга,Vira Popruha,2003-09-23,,132.45,135,70,135,340,SBD,Raw
F,84+,Student,2,Ельвіра Борозна,Elvira Borozna,2002-04-20,,86.35,130,50,130,310,SBD,Raw
