Division,WeightClassKg,Place,Name,Team,BodyweightKg,Best3SquatKg,Best3BenchKg,Best3DeadliftKg,TotalKg,Equipment,Event,Sex
Girls,44.23,1,Ally Highful,Los Fresnos,44.04,129.27,65.77,138.35,333.39,Single-ply,SBD,F
Girls,44.23,2,Raelee Reyes,San Marcos,43.09,113.4,52.16,122.47,288.03,Single-ply,SBD,F
Girls,44.23,3,Xochitl Gamez,Edinburg Vela,43.64,108.86,61.23,117.93,288.03,Single-ply,SBD,F
Girls,44.23,4,Yanitza Vazquez,La Joya Juarez-Lincoln,43.41,104.33,43.09,124.74,272.16,Single-ply,SBD,F
Girls,44.23,5,Venu Phan,Dickinson,43.09,113.4,43.09,106.59,263.08,Single-ply,SBD,F
Girls,44.23,6,Itzel Garcia #2,PSJA Southwest,44.18,108.86,40.82,106.59,256.28,Single-ply,SBD,F
Girls,44.23,7,Maria Pro,PSJA Southwest,44.18,106.59,45.36,102.06,254.01,Single-ply,SBD,F
Girls,44.23,8,Maya Higginbothom,Wylie,43,102.06,52.16,95.25,249.48,Single-ply,SBD,F
Girls,44.23,9,Julissa Gonzalez,Kyle Lehman,44.23,97.52,45.36,106.59,249.48,Single-ply,SBD,F
Girls,44.23,10,Maddie Knight,Mesquite Horn,42.77,90.72,36.29,104.33,231.33,Single-ply,SBD,F
Girls,44.23,DQ,Cecilia Palma,Odessa,43.18,,,,,Single-ply,SBD,F
Girls,44.23,DQ,Leah Sandoval,La Joya Palmview,43.27,99.79,,,,Single-ply,SBD,F
Girls,44.23,DQ,Mikayla Mewa,Beaumont West Brook,42.41,,,,,Single-ply,SBD,F
Girls,47.85,1,Helen Reyes,Weslaco,47.08,136.08,61.23,138.35,335.66,Single-ply,SBD,F
Girls,47.85,2,Aliana Richardson,Los Fresnos,47.13,133.81,56.7,145.15,335.66,Single-ply,SBD,F
Girls,47.85,3,Evelyn Hernandez,Weslaco East,47.4,129.27,54.43,140.61,324.32,Single-ply,SBD,F
Girls,47.85,4,Laisha Lopez,La Joya Palmview,46.04,136.08,77.11,106.59,319.78,Single-ply,SBD,F
Girls,47.85,5,Cassandra Puente,Los Fresnos,46.86,115.67,63.5,140.61,319.78,Single-ply,SBD,F
Girls,47.85,6,Daniela Perez,Los Fresnos,47.67,120.2,68.04,124.74,312.98,Single-ply,SBD,F
Girls,47.85,7,Tammy Idrogo,Laredo United South,47.04,115.67,52.16,127.01,294.84,Single-ply,SBD,F
Girls,47.85,8,Belen Fuentes,Plano,47.76,113.4,65.77,113.4,292.57,Single-ply,SBD,F
Girls,47.85,9,Valeria Pérez #2,Weslaco East,46.49,117.93,52.16,113.4,283.5,Single-ply,SBD,F
Girls,47.85,10,Nallely Gallegos,Laredo Johnson,47.85,115.67,47.63,111.13,274.42,Single-ply,SBD,F
Girls,47.85,11,Anastasia Pflaum,Belton,47.81,111.13,49.9,97.52,258.55,Single-ply,SBD,F
Girls,47.85,12,Adile Leal,Clute Brazoswood,46.67,92.99,43.09,104.33,240.4,Single-ply,SBD,F
Girls,47.85,13,Jasmin Mendez,Abilene,47.45,90.72,38.56,90.72,219.99,Single-ply,SBD,F
Girls,47.85,NS,Kennedy Freeman,Beaumont West Brook,,,,,,Single-ply,SBD,F
Girls,47.85,DQ,Arianna Garcia,Belton,46.9,115.67,58.97,,,Single-ply,SBD,F
Girls,47.85,DQ,Julie Escobar,Los Fresnos,47.58,,,,,Single-ply,SBD,F
Girls,47.85,DQ,Anahi Castro,PSJA North,47.08,,,,,Single-ply,SBD,F
Girls,47.85,DQ,Lauren Gilliam,Weatherford,46.86,,,,,Single-ply,SBD,F
Girls,51.94,1,Mandy Sanchez,Los Fresnos,50.8,145.15,68.04,145.15,358.34,Single-ply,SBD,F
Girls,51.94,2,Juliette Cantu,Edinburg Vela,50.62,151.95,86.18,117.93,356.07,Single-ply,SBD,F
Girls,51.94,3,Ale Escandon,Brownsville Hanna,49.44,142.88,68.04,138.35,349.27,Single-ply,SBD,F
Girls,51.94,4,Monika Saldivar,Laredo United South,50.67,133.81,63.5,140.61,337.93,Single-ply,SBD,F
Girls,51.94,5,Jackie Martinez,Los Fresnos,50.98,136.08,56.7,145.15,337.93,Single-ply,SBD,F
Girls,51.94,6,Ianellie Aguilar,Los Fresnos,51.66,136.08,65.77,136.08,337.93,Single-ply,SBD,F
Girls,51.94,7,Summer Sosa,Los Fresnos,51.75,124.74,56.7,136.08,317.51,Single-ply,SBD,F
Girls,51.94,8,Daphne Antu,PSJA North,51.75,127.01,61.23,124.74,312.98,Single-ply,SBD,F
Girls,51.94,9,Kennedy Blackmon,Plano,49.71,122.47,61.23,124.74,308.44,Single-ply,SBD,F
Girls,51.94,10,Pricilla Hernandez,La Joya Palmview,50.08,124.74,63.5,120.2,308.44,Single-ply,SBD,F
Girls,51.94,11,Sonni Ghering,Wylie,51.12,127.01,61.23,120.2,308.44,Single-ply,SBD,F
Girls,51.94,12,Christine Estrada,Alvin,51.48,131.54,54.43,120.2,306.17,Single-ply,SBD,F
Girls,51.94,13,Kalista Solis,PSJA Southwest,51.94,117.93,49.9,124.74,292.57,Single-ply,SBD,F
Girls,51.94,14,Jenna Gonzales,San Marcos,51.26,106.59,56.7,124.74,288.03,Single-ply,SBD,F
Girls,51.94,15,Jaydee Davis,Waco Midway,49.94,113.4,61.23,106.59,281.23,Single-ply,SBD,F
Girls,51.94,16,Kennadie Cochran,Montgomery,51.66,113.4,45.36,113.4,272.16,Single-ply,SBD,F
Girls,51.94,17,Tya Dudley,Tyler Lee,51.8,104.33,45.36,122.47,272.16,Single-ply,SBD,F
Girls,51.94,18,Mavelyn Ramos,Odessa,51.89,102.06,45.36,113.4,260.82,Single-ply,SBD,F
Girls,51.94,19,D'Lijah Gamboa,Odessa,50.58,83.91,40.82,104.33,229.06,Single-ply,SBD,F
Girls,51.94,20,Liz Renteria,Tyler Lee,51.8,88.45,40.82,99.79,229.06,Single-ply,SBD,F
Girls,56.02,1,Martha Salaya,Weslaco,55.34,183.7,102.06,176.9,462.66,Single-ply,SBD,F
Girls,56.02,2,Misty Prado,McAllen Memorial,54.84,145.15,95.25,149.69,390.09,Single-ply,SBD,F
Girls,56.02,3,Bella Vargas,Los Fresnos,54.52,142.88,86.18,149.69,378.75,Single-ply,SBD,F
Girls,56.02,4,Brianna Ruiz,Los Fresnos,54.3,151.95,70.31,151.95,374.21,Single-ply,SBD,F
Girls,56.02,5,Yesenia Valdez,Edinburg,55.07,149.69,74.84,149.69,374.21,Single-ply,SBD,F
Girls,56.02,6,Audrey Olivarez,Edinburg Vela,54.93,142.88,92.99,133.81,369.68,Single-ply,SBD,F
Girls,56.02,7,Bernabeth Beason,Wylie,53.89,136.08,81.65,131.54,349.27,Single-ply,SBD,F
Girls,56.02,8,Devion English,Belton,55.79,120.2,88.45,140.61,349.27,Single-ply,SBD,F
Girls,56.02,9,Veronica Alaniz,Edinburg,53.98,124.74,70.31,149.69,344.73,Single-ply,SBD,F
Girls,56.02,10,Christina Sanchez #2,Wylie,55.11,131.54,58.97,140.61,331.12,Single-ply,SBD,F
Girls,56.02,11,Mariah Garcia,Weslaco,56.02,138.35,68.04,122.47,328.85,Single-ply,SBD,F
Girls,56.02,12,Jennifer Sanchez,Alvin,55.88,136.08,68.04,120.2,324.32,Single-ply,SBD,F
Girls,56.02,13,Joselin Lara,Channelview,55.34,111.13,45.36,124.74,281.23,Single-ply,SBD,F
Girls,56.02,14,Taylor Lewis #1,Tyler,55.7,102.06,52.16,117.93,272.16,Single-ply,SBD,F
Girls,56.02,15,Bethany Broussard,Wolfforth Frenship,55.79,90.72,36.29,115.67,242.67,Single-ply,SBD,F
Girls,56.02,16,Angelika Rojero,Odessa,54.34,90.72,43.09,106.59,240.4,Single-ply,SBD,F
Girls,56.02,NS,Tyetiana Rugley,Longview,,,,,,Single-ply,SBD,F
Girls,56.02,DQ,Maria Martinez,Belton,55.97,133.81,,,,Single-ply,SBD,F
Girls,56.02,DQ,Daesha Cano,PSJA North,54.52,,,,,Single-ply,SBD,F
Girls,56.02,DQ,Kimberly Salas,Edinburg Vela,54.98,124.74,63.5,,,Single-ply,SBD,F
Girls,60.1,1,Maddie Graham,Plano,59.15,181.44,111.13,161.03,453.59,Single-ply,SBD,F
Girls,60.1,2,Lorena Martinez,Los Fresnos,59.92,170.1,65.77,174.63,410.5,Single-ply,SBD,F
Girls,60.1,3,Mikella Trevino,Weslaco,59.96,167.83,83.91,149.69,401.43,Single-ply,SBD,F
Girls,60.1,4,Pamela Arce,Edinburg,59.78,142.88,102.06,138.35,383.29,Single-ply,SBD,F
Girls,60.1,5,Dana Young,Belton,58.42,147.42,88.45,142.88,378.75,Single-ply,SBD,F
Girls,60.1,6,Jessica Luna,Mission,59.69,154.22,63.5,154.22,371.95,Single-ply,SBD,F
Girls,60.1,7,Steffi Olivarez,Edinburg Vela,58.56,142.88,86.18,138.35,367.41,Single-ply,SBD,F
Girls,60.1,8,Gabriella DeLaRosa,Edinburg Vela,58.6,142.88,92.99,131.54,367.41,Single-ply,SBD,F
Girls,60.1,9,Katherine Hernandez,PSJA North,57.79,136.08,68.04,158.76,362.87,Single-ply,SBD,F
Girls,60.1,10,Nora Balladares,Edinburg,56.2,145.15,81.65,131.54,358.34,Single-ply,SBD,F
Girls,60.1,11,Hannah Saldivar,Wylie,57.52,131.54,77.11,140.61,349.27,Single-ply,SBD,F
Girls,60.1,12,Alissa Saldivar,Wylie,59.47,124.74,74.84,142.88,342.46,Single-ply,SBD,F
Girls,60.1,13,Maggie Zavala,Alvin,57.61,138.35,52.16,147.42,337.93,Single-ply,SBD,F
Girls,60.1,14,Kitana Simpson,Beaumont West Brook,59.6,129.27,68.04,133.81,331.12,Single-ply,SBD,F
Girls,60.1,15,Ariana Leal,Odessa,57.97,95.25,47.63,117.93,260.82,Single-ply,SBD,F
Girls,60.1,16,Nychalia DeLeon,Tyler,58.29,90.72,36.29,117.93,244.94,Single-ply,SBD,F
Girls,60.1,DQ,Rubylee Perez,Kyle Lehman,59.6,163.29,,,,Single-ply,SBD,F
Girls,60.1,DQ,Melanie Garcia,Laredo Johnson,59.1,158.76,,,,Single-ply,SBD,F
Girls,60.1,DQ,Britni Starr,Abilene,60.06,,,,,Single-ply,SBD,F
Girls,67.36,1,Felissa Ponce de Leon,La Joya Palmview,66.59,204.12,99.79,183.7,487.61,Single-ply,SBD,F
Girls,67.36,2,Alexandra Chavez,Brownsville Hanna,66.63,206.38,108.86,165.56,480.81,Single-ply,SBD,F
Girls,67.36,3,Alexis Tamez,Weslaco,67.04,181.44,70.31,149.69,401.43,Single-ply,SBD,F
Girls,67.36,4,Hannah Eboagu,Bishop Lynch,64.91,151.95,74.84,170.1,396.89,Single-ply,SBD,F
Girls,67.36,5,Courtney DeCoste,Wylie,66.45,156.49,81.65,158.76,396.89,Single-ply,SBD,F
Girls,67.36,6,Maegen Delgado,San Marcos,65.82,151.95,74.84,163.29,390.09,Single-ply,SBD,F
Girls,67.36,7,Alexis Ysla,Kyle Lehman,66.04,167.83,65.77,156.49,390.09,Single-ply,SBD,F
Girls,67.36,8,Madalyn Whaltey,Wylie,63.68,149.69,90.72,133.81,374.21,Single-ply,SBD,F
Girls,67.36,9,Tianna Rainey,Cedar Hill,66,147.42,68.04,158.76,374.21,Single-ply,SBD,F
Girls,67.36,10,Nehemiah Coronado,La Joya,67.04,158.76,70.31,145.15,374.21,Single-ply,SBD,F
Girls,67.36,11,Keioveon Sullivan,Beaumont West Brook,65.23,138.35,70.31,161.03,369.68,Single-ply,SBD,F
Girls,67.36,12,Chasity Carter,Houston Westbury,66.04,142.88,81.65,142.88,367.41,Single-ply,SBD,F
Girls,67.36,13,Sophia Torres,Los Fresnos,66.45,149.69,58.97,147.42,356.07,Single-ply,SBD,F
Girls,67.36,14,Claire Currie,Wolfforth Frenship,66.32,122.47,61.23,145.15,328.85,Single-ply,SBD,F
Girls,67.36,15,Sydney Stephens,Midland,64.5,106.59,54.43,120.2,281.23,Single-ply,SBD,F
Girls,67.36,NS,Carrie Gilliland,Longview,,,,,,Single-ply,SBD,F
Girls,67.36,NS,Brittney Ferguson,Longview,,,,,,Single-ply,SBD,F
Girls,67.36,DQ,Mary Jane Maldonado,Los Fresnos,65.5,,,,,Single-ply,SBD,F
Girls,75.07,1,Laisha Gardner,Laredo United South,72.8,197.31,102.06,188.24,487.61,Single-ply,SBD,F
Girls,75.07,2,LeAnn Ramirez,San Benito,74.39,192.78,111.13,183.7,487.61,Single-ply,SBD,F
Girls,75.07,3,Kaitlyn Jackson,San Marcos,71.94,156.49,81.65,181.44,419.57,Single-ply,SBD,F
Girls,75.07,4,Paola Espinoza,Weslaco East,73.21,151.95,95.25,156.49,403.7,Single-ply,SBD,F
Girls,75.07,5,Neiddy Rodriguez,Wylie,74.43,165.56,74.84,158.76,399.16,Single-ply,SBD,F
Girls,75.07,6,Marisela Gonzalez,Edinburg,73.16,151.95,95.25,145.15,392.36,Single-ply,SBD,F
Girls,75.07,7,Jaslyn Olivarez,McAllen,72.76,167.83,77.11,136.08,381.02,Single-ply,SBD,F
Girls,75.07,8,Onize Musa,Wylie,71.8,145.15,77.11,156.49,378.75,Single-ply,SBD,F
Girls,75.07,9,Tierra Turner,Beaumont West Brook,73.75,142.88,70.31,156.49,369.68,Single-ply,SBD,F
Girls,75.07,10,Priscilla Acosta,McAllen Rowe,73.89,167.83,65.77,133.81,367.41,Single-ply,SBD,F
Girls,75.07,11,Mia Palomarez,Kyle Lehman,73.03,147.42,70.31,138.35,356.07,Single-ply,SBD,F
Girls,75.07,12,Ruby Bejarano,Midland,71.71,140.61,70.31,124.74,335.66,Single-ply,SBD,F
Girls,75.07,13,Ja'Shae Collier,Tyler,72.35,106.59,63.5,147.42,317.51,Single-ply,SBD,F
Girls,75.07,14,Jaekarson Brandon,Midland,67.54,124.74,56.7,127.01,308.44,Single-ply,SBD,F
Girls,75.07,DQ,Ariana Horne,Pearland,67.63,151.95,83.91,,,Single-ply,SBD,F
Girls,75.07,DQ,Destany Guzman,Edinburg Vela,72.98,,,,,Single-ply,SBD,F
Girls,75.07,DQ,Virginia Watkins,Edinburg Vela,71.67,154.22,,,,Single-ply,SBD,F
Girls,75.07,DQ,Alex Bazan #1,La Joya Palmview,73.71,,,,,Single-ply,SBD,F
Girls,82.33,1,Jesed Castro,Los Fresnos,81.56,226.8,120.2,181.44,528.44,Single-ply,SBD,F
Girls,82.33,2,Ariene Boyce,Midland,81.19,181.44,92.99,183.7,458.13,Single-ply,SBD,F
Girls,82.33,3,Maya Perez,Brownsville Hanna,80.42,176.9,83.91,170.1,430.91,Single-ply,SBD,F
Girls,82.33,4,Katherine Garza,Edinburg Vela,77.88,170.1,95.25,163.29,428.64,Single-ply,SBD,F
Girls,82.33,5,Alyssa Juarez,Weslaco East,78.93,174.63,88.45,161.03,424.11,Single-ply,SBD,F
Girls,82.33,6,Kacie Lopez,Weslaco,80.15,192.78,65.77,165.56,424.11,Single-ply,SBD,F
Girls,82.33,7,Millyons McMillian,Beaumont West Brook,80.47,147.42,72.57,179.17,399.16,Single-ply,SBD,F
Girls,82.33,8,Erica Mancha,Waco Midway,78.7,154.22,68.04,154.22,376.48,Single-ply,SBD,F
Girls,82.33,9,Gissel Perez,Channelview,77.11,142.88,63.5,156.49,362.87,Single-ply,SBD,F
Girls,82.33,10,Hannah Tyson,Wolfforth Frenship,81.65,108.86,52.16,142.88,303.91,Single-ply,SBD,F
Girls,82.33,NS,Nikki Bell,Longview,,,,,,Single-ply,SBD,F
Girls,82.33,DQ,Morgan Callin,Belton,79.7,156.49,,,,Single-ply,SBD,F
Girls,90.04,1,Valerie Silva,Weslaco,82.46,190.51,108.86,176.9,476.27,Single-ply,SBD,F
Girls,90.04,2,Emily Daniel,Keller Timber Creek,88.45,208.65,108.86,145.15,462.66,Single-ply,SBD,F
Girls,90.04,3,Layla Espinoza,Laredo United South,88.72,195.04,74.84,183.7,453.59,Single-ply,SBD,F
Girls,90.04,4,Itzayanni Martinez,McAllen Memorial,89.72,188.24,99.79,156.49,444.52,Single-ply,SBD,F
Girls,90.04,5,Amber Gaytan,Brownsville Hanna,88.99,170.1,79.38,167.83,417.3,Single-ply,SBD,F
Girls,90.04,6,Jaretze Ramon,La Joya Palmview,85.64,163.29,79.38,156.49,399.16,Single-ply,SBD,F
Girls,90.04,7,Chandler Rogers #1,North Crowley,84.14,158.76,72.57,163.29,394.63,Single-ply,SBD,F
Girls,90.04,8,Carly Burns,Beaumont West Brook,88.54,158.76,70.31,151.95,381.02,Single-ply,SBD,F
Girls,90.04,9,Kailey Hobson,Belton,87.45,147.42,83.91,140.61,371.95,Single-ply,SBD,F
Girls,90.04,10,Maddy Cruz,Kyle Lehman,83.14,138.35,74.84,142.88,356.07,Single-ply,SBD,F
Girls,90.04,11,Sierra Gordon,Conroe,89.45,149.69,79.38,124.74,353.8,Single-ply,SBD,F
Girls,90.04,12,Aliyanna Osborne,Abilene,88.86,136.08,52.16,154.22,342.46,Single-ply,SBD,F
Girls,90.04,DQ,Angeline Young,Edinburg Vela,87.41,179.17,,,,Single-ply,SBD,F
Girls,90.04,DQ,Mya Peralta,Midland,88.22,,,,,Single-ply,SBD,F
Girls,100.02,1,LaDazeja Charles,Channelview,94.76,197.31,90.72,199.58,487.61,Single-ply,SBD,F
Girls,100.02,2,Carolina De Leon,Weslaco East,94.3,208.65,92.99,183.7,485.34,Single-ply,SBD,F
Girls,100.02,3,Hannah Beattie,Wylie,92.62,204.12,92.99,156.49,453.59,Single-ply,SBD,F
Girls,100.02,4,Evelyn Ramirez,Kyle Lehman,96.16,188.24,97.52,161.03,446.79,Single-ply,SBD,F
Girls,100.02,5,Ashley Tapia,PSJA,100.02,192.78,86.18,167.83,446.79,Single-ply,SBD,F
Girls,100.02,6,Jasmine Ruvalcaba,Bishop Lynch,95.53,176.9,81.65,176.9,435.45,Single-ply,SBD,F
Girls,100.02,7,Amanda Garcia,Brownsville Hanna,97.7,179.17,108.86,147.42,435.45,Single-ply,SBD,F
Girls,100.02,8,Jasmine Gowdie,Beaumont West Brook,90.99,172.37,77.11,176.9,426.38,Single-ply,SBD,F
Girls,100.02,9,Sitlalik Chapa,La Joya,97.7,172.37,70.31,149.69,392.36,Single-ply,SBD,F
Girls,100.02,10,Alicia Goodridge,Belton,94.44,151.95,81.65,145.15,378.75,Single-ply,SBD,F
Girls,100.02,11,Mia Rivera,Midland,97.07,142.88,68.04,145.15,356.07,Single-ply,SBD,F
Girls,100.02,12,Mya Ramos,Abilene,99.61,106.59,49.9,129.27,285.76,Single-ply,SBD,F
Girls,100.02,DQ,Lauren Taylor,Conroe Oak Ridge,95.35,,,,,Single-ply,SBD,F
Girls,117.71,1,Deborah Lugo,Laredo United South,108.05,226.8,108.86,172.37,508.02,Single-ply,SBD,F
Girls,117.71,2,Crystal Hernandez,PSJA North,109.95,174.63,124.74,179.17,478.54,Single-ply,SBD,F
Girls,117.71,3,Jasmine Medina,San Antonio Southwest,115.53,208.65,99.79,170.1,478.54,Single-ply,SBD,F
Girls,117.71,4,Joy Perez,Brownsville Hanna,111.81,199.58,95.25,165.56,460.4,Single-ply,SBD,F
Girls,117.71,5,Serenety Yates,Belton,110.77,181.44,102.06,138.35,421.84,Single-ply,SBD,F
Girls,117.71,6,Kadeija Edwards,Wylie,103.46,170.1,86.18,163.29,419.57,Single-ply,SBD,F
Girls,117.71,7,Brittany Lozano,Brownsville Hanna,106.19,183.7,74.84,158.76,417.3,Single-ply,SBD,F
Girls,117.71,8,Megan Hartline,Wolfforth Frenship,105.32,181.44,63.5,167.83,412.77,Single-ply,SBD,F
Girls,117.71,9,Kaylee Hausam,Belton,104.24,165.56,83.91,158.76,408.23,Single-ply,SBD,F
Girls,117.71,10,Victoria Martinez #3,Wylie,106.82,167.83,97.52,142.88,408.23,Single-ply,SBD,F
Girls,117.71,11,Kealani Moore,Conroe,101.47,145.15,52.16,151.95,349.27,Single-ply,SBD,F
Girls,117.71,12,Brooke Beckham,Clute Brazoswood,106.1,149.69,68.04,124.74,342.46,Single-ply,SBD,F
Girls,117.71,13,Courtney Bowers,San Angelo Central,100.24,145.15,45.36,117.93,308.44,Single-ply,SBD,F
Girls,117.71,DQ,Aria Metcalf,San Antonio East Central,112.94,174.63,77.11,,,Single-ply,SBD,F
Girls,117.71+,1,Melissa Moralez,Weslaco East,124.83,272.16,136.08,181.44,589.67,Single-ply,SBD,F
Girls,117.71+,2,Hattie Green,Odessa,152.41,226.8,104.33,183.7,514.83,Single-ply,SBD,F
Girls,117.71+,3,Alex Headley,Plano,147.78,226.8,104.33,163.29,494.42,Single-ply,SBD,F
Girls,117.71+,4,Marlene Martinez,Edinburg Economedes,122.88,208.65,106.59,167.83,483.08,Single-ply,SBD,F
Girls,117.71+,5,Kaitlynn Peterson,Rockwall-Heath,123.79,192.78,88.45,158.76,439.98,Single-ply,SBD,F
Girls,117.71+,6,Ga'Brella Billington,Tyler Lee,131.18,163.29,90.72,156.49,410.5,Single-ply,SBD,F
Girls,117.71+,7,Kennedi Henderson,Channelview,142.2,172.37,77.11,145.15,394.63,Single-ply,SBD,F
Girls,117.71+,8,Keyana Alexander,Odessa,133.08,154.22,72.57,147.42,374.21,Single-ply,SBD,F
Girls,117.71+,9,Chloe Durham,Tyler,160.71,163.29,72.57,138.35,374.21,Single-ply,SBD,F
Girls,117.71+,10,Montana George,Belton,138.8,138.35,56.7,142.88,337.93,Single-ply,SBD,F
Girls,117.71+,11,Elisa Neder,Montgomery,135.03,136.08,65.77,131.54,333.39,Single-ply,SBD,F
Girls,117.71+,DQ,Mia Dolin,Kyle Lehman,120.29,181.44,79.38,,,Single-ply,SBD,F
