Name,Sex,WeightClassKg,BodyweightKg,BirthYear,Division,Team,Bench1Kg,Bench2Kg,Bench3Kg,Best3BenchKg,TotalKg,Place,Event,Equipment,BirthDate
Markus Steiner,M,120.00,119.90,1978,Masters 1,East End Barbell Club Podersdorf,125,132.5,140,140,140,1,B,Raw,1978-05-31
Blessing Catena,F,63.00,63.00,2003,Juniors,East End Barbell Club Podersdorf,55,57.5,60,60,60,1,B,Raw,2003-03-24
Vanessa Unger,F,63.00,62.20,1991,Open,East End Barbell Club Podersdorf,65,67.5,70,70,70,1,B,Raw,1991-12-19
Nadine Ruttner,F,69.00,65.80,2001,Juniors,Tschak Prak PL Eisenstadt,47.5,50,52.5,52.5,52.5,1,B,Raw,2001-04-20
Sigrid Caha,F,69.00,67.10,1991,Open,East End Barbell Club Podersdorf,57.5,60,62.5,62.5,62.5,1,B,Raw,1991-10-24
Patrick Lang,M,66.00,65.50,1993,Open,East End Barbell Club Podersdorf,97.5,102.5,-105,102.5,102.5,1,B,Raw,1993-12-14
Michael Ungerböck,M,93.00,92.10,1999,Open,Tschak Prak PL Eisenstadt,102.5,110,115,115,115,1,B,Raw,1999-05-21
Franz Mracek,M,120.00,111.00,1947,Masters 4,Tschak Prak PL Eisenstadt,100,110,,110,110,1,B,Raw,1947-04-20
Thomas Jost,M,105.00,94.50,1992,Open,East End Barbell Club Podersdorf,180,190,196,196,196,1,B,Raw,1992-07-25
Christoph Kornfehl,M,83.00,82.00,2003,Juniors,East End Barbell Club Podersdorf,117.5,122.5,127.5,127.5,127.5,1,B,Raw,2003-02-16
Nikolaos Scharf,M,120+,123.70,1980,Masters 1,East End Barbell Club Podersdorf,-125,125,-130,125,125,1,B,Raw,1980-06-18
Christian Barth,M,93.00,91.80,1960,Masters 3,SV Union Fun & Power Edelstal,80,85,90,90,90,1,B,Raw,1960-03-19
Alfred Schreiber-Winzig,M,66.00,62.80,1948,Masters 4,SV Union Fun & Power Edelstal,60,-67.5,-67.5,60,60,1,B,Raw,1948-01-10
