Division,WeightClassKg,Place,Name,Team,BodyweightKg,Best3SquatKg,Best3BenchKg,Best3DeadliftKg,TotalKg,Equipment,Event,Sex
Boys,55.79,1,Taylor Kelly #1,Mabank,51.89,117.93,68.04,124.74,310.71,Single-ply,SBD,M
Boys,51.71,2,Patrick Brown,Quinlan Ford,50.35,113.4,61.23,120.2,294.84,Single-ply,SBD,M
Boys,51.71,3,Brett Butler,Mabank,47.17,115.67,61.23,113.4,290.3,Single-ply,SBD,M
Boys,51.71,4,Nathan Upshaw,Rusk,40.82,106.59,45.36,97.52,249.48,Single-ply,SBD,M
Boys,51.71,5,David Blackwell,Nacogdoches,51.26,104.33,40.82,97.52,242.67,Single-ply,SBD,M
Boys,51.71,6,Cj McKinzie,Whitesboro,46.08,92.99,47.63,92.99,233.6,Single-ply,SBD,M
Boys,55.79,1,James Silkey,Quinlan Ford,54.79,138.35,88.45,145.15,371.95,Single-ply,SBD,M
Boys,55.79,2,Chris Pendergrass,Grand Saline,54.88,108.86,77.11,147.42,333.39,Single-ply,SBD,M
Boys,55.79,3,Micah Ethington,Nacogdoches,54.43,120.2,58.97,133.81,312.98,Single-ply,SBD,M
Boys,55.79,4,Dylan Rogers,White Oak,52.16,99.79,61.23,117.93,278.96,Single-ply,SBD,M
Boys,55.79,DQ,Arturo Ledzma,Mabank,55.79,,,,,Single-ply,SBD,M
Boys,55.79,DQ,Josh Matheson,Mabank,55.79,,,,,Single-ply,SBD,M
Boys,55.79,DQ,Hunter Skelton,Bullard,55.79,,,,,Single-ply,SBD,M
Boys,55.79,DQ,Aj Durham,Kemp,54.88,,,,,Single-ply,SBD,M
Boys,55.79,DQ,Gabriel Mariscol,Pittsburg,55.79,124.74,83.91,122.47,,Single-ply,SBD,M
Boys,67.13,1,Rusty Burris,Princeton,60.1,188.24,136.08,151.95,476.27,Single-ply,SBD,M
Boys,59.87,2,Joseph Gable,Van,58.51,163.29,92.99,163.29,419.57,Single-ply,SBD,M
Boys,59.87,3,Luke Parrish,Tom Bean,58.79,156.49,99.79,147.42,403.7,Single-ply,SBD,M
Boys,59.87,4,Austin McRight,Rusk,57.61,149.69,86.18,154.22,390.09,Single-ply,SBD,M
Boys,59.87,5,Alec James,Bullard,59.87,158.76,77.11,154.22,390.09,Single-ply,SBD,M
Boys,59.87,6,Jt Delay,Mabank,59.6,151.95,92.99,140.61,385.55,Single-ply,SBD,M
Boys,59.87,7,Trevor Kuketz,Argyle,57.79,131.54,92.99,147.42,371.95,Single-ply,SBD,M
Boys,59.87,8,Cody Gabbard,Bullard,57.88,136.08,63.5,158.76,358.34,Single-ply,SBD,M
Boys,67.13,9,Cody Voyles,Whitesboro,60.06,129.27,90.72,136.08,356.07,Single-ply,SBD,M
Boys,59.87,10,Nathan Stibbens,Scurry-Rosser,56.43,136.08,65.77,129.27,331.12,Single-ply,SBD,M
Boys,59.87,DQ,Juan Castaneda,Princeton,59.87,,,,,Single-ply,SBD,M
Boys,59.87,DQ,Marcelino Montano,Wills Point,59.87,,,,,Single-ply,SBD,M
Boys,74.84,1,Jacob Golden,Quitman,67.31,185.97,122.47,174.63,483.08,Single-ply,SBD,M
Boys,74.84,2,Alan Phillips,Ore City,67.36,179.17,92.99,204.12,476.27,Single-ply,SBD,M
Boys,67.13,3,Jonny Sorey,Forney,65.32,179.17,90.72,181.44,451.32,Single-ply,SBD,M
Boys,67.13,4,Jacorian Willis,Pittsburg,62.6,174.63,97.52,176.9,449.06,Single-ply,SBD,M
Boys,67.13,5,Hunter Cox,Redwater,63.96,167.83,97.52,163.29,428.64,Single-ply,SBD,M
Boys,67.13,6,Ja'Quan Williams,Mineola,63.96,156.49,83.91,188.24,428.64,Single-ply,SBD,M
Boys,67.13,7,Dalton Simonek,Bullard,61.33,158.76,90.72,163.29,412.77,Single-ply,SBD,M
Boys,67.13,8,Seth Farmer,Scurry-Rosser,66.41,156.49,90.72,145.15,392.36,Single-ply,SBD,M
Boys,74.84,9,Jacobie Randle,Nacogdoches,67.22,149.69,81.65,158.76,390.09,Single-ply,SBD,M
Boys,67.13,10,Carson Matchin,Kemp,60.87,136.08,92.99,151.95,381.02,Single-ply,SBD,M
Boys,67.13,11,Ethan Callahan,Quitman,62.14,117.93,65.77,120.2,303.91,Single-ply,SBD,M
Boys,67.13,12,J Mosley,Carrollton Ranchview,65.32,108.86,65.77,122.47,297.1,Single-ply,SBD,M
Boys,67.13,DQ,Deion Percy,Carrollton Ranchview,67.13,,,,,Single-ply,SBD,M
Boys,67.13,DQ,Eric Benton,Bullard,67.13,,,,,Single-ply,SBD,M
Boys,67.13,DQ,Trevor Martin,White Oak,67.13,,,,,Single-ply,SBD,M
Boys,67.13,DQ,Ryan Norman,Kemp,65.77,,,,,Single-ply,SBD,M
Boys,74.84,1,Alex Cuarenta,Nacogdoches,73.12,210.92,90.72,199.58,501.22,Single-ply,SBD,M
Boys,74.84,2,Carson Turner,Quitman,71.4,190.51,99.79,195.04,485.34,Single-ply,SBD,M
Boys,74.84,3,Austin Ghoulette,Rusk,73.84,172.37,106.59,192.78,471.74,Single-ply,SBD,M
Boys,74.84,4,Justin Lawler,Kemp,70.03,172.37,108.86,183.7,464.93,Single-ply,SBD,M
Boys,74.84,5,Tarik Crear,Commerce,71.58,188.24,95.25,170.1,453.59,Single-ply,SBD,M
Boys,82.1,6,Mike Lay,Commerce,74.93,176.9,102.06,170.1,449.06,Single-ply,SBD,M
Boys,74.84,7,Josh Dickey,Scurry-Rosser,73.94,165.56,92.99,165.56,424.11,Single-ply,SBD,M
Boys,74.84,8,Aaron Bacook,Wills Point,71.67,147.42,83.91,170.1,401.43,Single-ply,SBD,M
Boys,74.84,9,Jake Hulsman,Wills Point,73.66,140.61,86.18,165.56,392.36,Single-ply,SBD,M
Boys,74.84,DQ,Bryan Tucker,Wills Point,74.84,,,,,Single-ply,SBD,M
Boys,74.84,DQ,Caleb Whitley,Commerce,74.39,,,,,Single-ply,SBD,M
Boys,74.84,DQ,Alex Reyes,Carrollton Ranchview,74.84,,,,,Single-ply,SBD,M
Boys,74.84,DQ,Houston Alexander,Bullard,74.84,,,,,Single-ply,SBD,M
Boys,74.84,DQ,Cris Murray,Kemp,74.84,,,,,Single-ply,SBD,M
Boys,74.84,DQ,Robert Dominguez,Mabank,74.84,,,,,Single-ply,SBD,M
Boys,74.84,DQ,David Barnes,Farmersville,74.84,,,,,Single-ply,SBD,M
Boys,74.84,DQ,John Kilgore,Kemp,74.39,210.92,124.74,,,Single-ply,SBD,M
Boys,74.84,DQ,Hunter Walters,Brownsboro,73.3,170.1,,,,Single-ply,SBD,M
Boys,82.1,1,Kevin Stone,Quinlan Ford,82.01,208.65,129.27,219.99,557.92,Single-ply,SBD,M
Boys,82.1,2,Kyle Stone,Quinlan Ford,81.83,183.7,133.81,226.8,544.31,Single-ply,SBD,M
Boys,82.1,3,Beau Brewer,Diana New Diana,75.3,204.12,138.35,199.58,542.04,Single-ply,SBD,M
Boys,82.1,4,Jason Thomas,Corsicana Mildred,79.83,206.38,127.01,199.58,532.97,Single-ply,SBD,M
Boys,82.1,5,Cabe Bonner,Redwater,80.1,181.44,124.74,208.65,514.83,Single-ply,SBD,M
Boys,82.1,6,Ruben Sanchez,Mineola,81.19,204.12,106.59,195.04,505.76,Single-ply,SBD,M
Boys,82.1,7,Stone Leach,Ore City,75.75,195.04,111.13,197.31,503.49,Single-ply,SBD,M
Boys,82.1,8,Corey Fuller,Van,78.93,199.58,124.74,172.37,496.68,Single-ply,SBD,M
Boys,82.1,9,Josh Trumble,Redwater,75.57,181.44,120.2,183.7,485.34,Single-ply,SBD,M
Boys,82.1,10,Carlos Cruz,Scurry-Rosser,80.29,183.7,108.86,185.97,478.54,Single-ply,SBD,M
Boys,89.81,11,Byrce Dover,Bullard,82.19,188.24,106.59,181.44,476.27,Single-ply,SBD,M
Boys,82.1,12,Corbin Russell,Corsicana Mildred,81.19,165.56,115.67,192.78,474,Single-ply,SBD,M
Boys,82.1,13,Gabe Conner,Commerce,75.3,172.37,97.52,190.51,460.4,Single-ply,SBD,M
Boys,82.1,14,Brandon Ross,Carrollton Ranchview,81.65,163.29,104.33,158.76,426.38,Single-ply,SBD,M
Boys,82.1,15,Jakoyvian Ervin,Nacogdoches,75.84,151.95,104.33,167.83,424.11,Single-ply,SBD,M
Boys,82.1,16,Nathan Lewis,Wills Point,77.47,145.15,70.31,131.54,347,Single-ply,SBD,M
Boys,82.1,DQ,Jim Sundberg,Carrollton Ranchview,82.1,,,,,Single-ply,SBD,M
Boys,82.1,DQ,Vinny Cottingham,Bullard,82.1,,,,,Single-ply,SBD,M
Boys,82.1,DQ,Dontae Broussard,Brownsboro,82.1,,,,,Single-ply,SBD,M
Boys,82.1,DQ,Ray Hodges,Kemp,82.1,,,,,Single-ply,SBD,M
Boys,82.1,DQ,Mitchal Pinion,Kemp,78.65,190.51,,,,Single-ply,SBD,M
Boys,82.1,DQ,Brandon Armstrong,Pittsburg,79.65,215.46,,,,Single-ply,SBD,M
Boys,89.81,1,Mitchell Bateman,Argyle,88.81,247.21,117.93,226.8,591.94,Single-ply,SBD,M
Boys,99.79,2,Casey Sergent,Quinlan Ford,89.9,233.6,122.47,222.26,578.33,Single-ply,SBD,M
Boys,99.79,3,Triston Leaks,Canton,89.99,215.46,142.88,192.78,551.11,Single-ply,SBD,M
Boys,89.81,4,Josh Wisely,Carrollton Ranchview,89.72,222.26,124.74,185.97,532.97,Single-ply,SBD,M
Boys,89.81,5,Shane Taylor,Joaquin,82.83,201.85,127.01,199.58,528.44,Single-ply,SBD,M
Boys,89.81,6,Nathan Biemer,White Oak,89.54,204.12,127.01,188.24,519.36,Single-ply,SBD,M
Boys,89.81,7,Colton Oliver,Forney,89.36,190.51,113.4,192.78,496.68,Single-ply,SBD,M
Boys,89.81,8,Justin Miller,Wills Point,89.63,172.37,86.18,156.49,415.04,Single-ply,SBD,M
Boys,89.81,DQ,Tommy Bagsby,Carrollton Ranchview,89.81,,,,,Single-ply,SBD,M
Boys,89.81,DQ,Taylor Woodruff,Brownsboro,89.81,,,,,Single-ply,SBD,M
Boys,89.81,DQ,Naylan Phelps,Bullard,89.81,,,,,Single-ply,SBD,M
Boys,89.81,DQ,Michael Taylor #6,Bullard,89.81,,,,,Single-ply,SBD,M
Boys,89.81,DQ,Dillon Searcy,Bullard,83.01,145.15,92.99,,,Single-ply,SBD,M
Boys,89.81,DQ,Lee Cecil,Redwater,84.1,,,,,Single-ply,SBD,M
Boys,89.81,DQ,Chris Johson,Wills Point,88,,,,,Single-ply,SBD,M
Boys,99.79,1,John Trotter,Rusk,98.88,226.8,163.29,249.48,639.57,Single-ply,SBD,M
Boys,99.79,2,John Caruso,Mineola,97.98,217.72,145.15,249.48,612.35,Single-ply,SBD,M
Boys,99.79,3,Josh Ferrer,Blooming Grove,97.25,208.65,136.08,199.58,544.31,Single-ply,SBD,M
Boys,99.79,4,Joel Palma,Grand Saline,96.62,229.06,120.2,192.78,542.04,Single-ply,SBD,M
Boys,99.79,5,Tyler Lint,Pittsburg,98.16,222.26,133.81,185.97,542.04,Single-ply,SBD,M
Boys,99.79,6,Dillon Bates,Mineola,96.25,204.12,138.35,195.04,537.51,Single-ply,SBD,M
Boys,99.79,7,John Jennings,Kemp,98.43,208.65,120.2,174.63,503.49,Single-ply,SBD,M
Boys,99.79,8,Naaman Scott,Nacogdoches,94.26,181.44,113.4,167.83,462.66,Single-ply,SBD,M
Boys,99.79,9,Jonathan Perez,Scurry-Rosser,97.98,195.04,92.99,167.83,455.86,Single-ply,SBD,M
Boys,99.79,10,Julius Hall,Carrollton Ranchview,94.17,149.69,95.25,172.37,417.3,Single-ply,SBD,M
Boys,99.79,DQ,James Forrest,Kemp,99.79,,,,,Single-ply,SBD,M
Boys,99.79,DQ,Ryan McGee,Joaquin,99.79,,,,,Single-ply,SBD,M
Boys,99.79,DQ,Clay Hendon,Van,99.79,,,,,Single-ply,SBD,M
Boys,99.79,DQ,Truett Lewis,Wills Point,99.79,,,,,Single-ply,SBD,M
Boys,99.79,DQ,Quinten Udelhoven,Wills Point,99.79,,,,,Single-ply,SBD,M
Boys,99.79,DQ,Bubba Garcia,Pittsburg,95.25,256.28,,,,Single-ply,SBD,M
Boys,109.77,1,Terrance Daniels,Gladewater Sabine,101.42,226.8,147.42,240.4,614.62,Single-ply,SBD,M
Boys,109.77,2,Jeremy McDaniel,Joaquin,104.87,242.67,145.15,219.99,607.81,Single-ply,SBD,M
Boys,109.77,3,Leonard Elledge,Quinlan Ford,107.95,231.33,142.88,219.99,594.21,Single-ply,SBD,M
Boys,109.77,4,Dalton Santos,Van,105.23,219.99,158.76,213.19,591.94,Single-ply,SBD,M
Boys,109.77,5,Sebastian Sara,Carrollton Ranchview,108.59,215.46,124.74,201.85,542.04,Single-ply,SBD,M
Boys,109.77,6,Richard Johnson #6,Carrollton Ranchview,107.95,197.31,124.74,201.85,523.9,Single-ply,SBD,M
Boys,109.77,7,Nick McLean,Van,109.77,199.58,129.27,190.51,519.36,Single-ply,SBD,M
Boys,109.77,8,Scott Gaskill,Van,106.23,172.37,117.93,190.51,480.81,Single-ply,SBD,M
Boys,109.77,9,Justin Perez,Farmersville,105.23,222.26,,,222.26,Single-ply,S,M
Boys,109.77,DQ,Kirk Williams,Dawson,109.77,,,,,Single-ply,S,M
Boys,109.77,DQ,Jd Nolan,Farmersville,109.77,,,,,Single-ply,S,M
Boys,109.77,DQ,Austin Richardson,Bullard,109.77,,,,,Single-ply,S,M
Boys,109.77,DQ,Alex Paredes,Grand Saline,104.78,165.56,120.2,,,Single-ply,SB,M
Boys,109.77,DQ,Xavier Gordon,Nacogdoches,109.5,215.46,115.67,,,Single-ply,SB,M
Boys,109.77,DQ,Andrew Epps,Mineola,102.51,,,,,Single-ply,S,M
Boys,124.74,1,Chris Ramos #5,Forney,117.48,233.6,149.69,233.6,616.89,Single-ply,SBD,M
Boys,124.74,2,Michael Golden,Quitman,111.13,249.48,147.42,217.72,614.62,Single-ply,SBD,M
Boys,124.74,3,Lee Demmings,Dawson,123.29,226.8,136.08,222.26,585.13,Single-ply,SBD,M
Boys,124.74,4,Jeremiah Justice,Carrollton Ranchview,123.38,263.08,133.81,181.44,578.33,Single-ply,SBD,M
Boys,124.74,5,Jared Blair,Rusk,113.85,222.26,142.88,208.65,573.79,Single-ply,SBD,M
Boys,124.74,6,Joseph Crain,Quitman,110.68,235.87,124.74,201.85,562.45,Single-ply,SBD,M
Boys,124.74,7,Jacob Witt,Diana New Diana,118.3,204.12,113.4,242.67,560.19,Single-ply,SBD,M
Boys,124.74,8,Justin LaFrance,Wills Point,120.2,199.58,113.4,195.04,508.02,Single-ply,SBD,M
Boys,124.74,9,Tyler Heard,Scurry-Rosser,119.84,204.12,117.93,165.56,487.61,Single-ply,SBD,M
Boys,124.74,10,Tyler Lynnyard,Nacogdoches,118.84,181.44,97.52,181.44,460.4,Single-ply,SBD,M
Boys,124.74,DQ,Juan Ocon,Nacogdoches,124.74,,,,,Single-ply,SBD,M
Boys,124.74,DQ,Richard Pickett,Princeton,124.74,,,,,Single-ply,SBD,M
Boys,124.74,DQ,Logan Springs,Gladewater Sabine,124.74,,,,,Single-ply,SBD,M
Boys,124.74,DQ,Cody Parker,Kemp,113.76,249.48,158.76,204.12,,Single-ply,SBD,M
Boys,124.74,DQ,Dillon Croley,Brownsboro,122.56,233.6,,,,Single-ply,SBD,M
Boys,124.74,DQ,Kyle Marshall,Scurry-Rosser,119.2,,,,,Single-ply,SBD,M
Boys,124.74+,1,Ethan Perkins,Nacogdoches,130.82,288.03,185.97,260.82,734.82,Single-ply,SBD,M
Boys,124.74+,2,Kody Miles,Commerce,143.06,240.4,127.01,210.92,578.33,Single-ply,SBD,M
Boys,124.74+,3,Seth Butler,Wills Point,133.36,238.14,124.74,208.65,571.53,Single-ply,SBD,M
Boys,124.74+,4,Mason Faber,White Oak,129.82,242.67,147.42,179.17,569.26,Single-ply,SBD,M
Boys,124.74+,5,Jamie Davidson,Farmersville,127.46,217.72,131.54,201.85,551.11,Single-ply,SBD,M
Boys,124.74+,6,Mike Bruce,Commerce,127.73,226.8,129.27,185.97,542.04,Single-ply,SBD,M
Boys,124.74+,7,Montana Duncan,Mineola,129.73,213.19,136.08,188.24,537.51,Single-ply,SBD,M
Boys,124.74+,8,Cameron Sturns,Nacogdoches,132.09,199.58,117.93,185.97,503.49,Single-ply,SBD,M
Boys,124.74+,9,Zach Luger,Carrollton Ranchview,130.36,149.69,70.31,149.69,369.68,Single-ply,SBD,M
Boys,124.74+,DQ,Noe Jose,Grand Saline,125.19,,,,,Single-ply,SBD,M
