Place,Name,Sex,BirthDate,Age,Country,Equipment,Division,BodyweightKg,WeightClassKg,Squat1Kg,Squat2Kg,Squat3Kg,Best3SquatKg,Bench1Kg,Bench2Kg,Bench3Kg,Best3BenchKg,Deadlift1Kg,Deadlift2Kg,Deadlift3Kg,Best3DeadliftKg,TotalKg,Event
NS,Anaïs Minet,F,2003-07-16,20,Belgium,Raw,Juniors,,,,,,,,,,,,,,,,SBD
NS,Cloé Raison,F,2001-12-12,22,Belgium,Raw,Juniors,,,,,,,,,,,,,,,,SBD
1,Amelia Sedda,F,2005-01-11,19,Belgium,Raw,Juniors,46.1,47,80,-85,-85,80,40,-45,-45,40,90,97.5,105,105,225,SBD
1,Fiorella Merandino,F,2005-12-29,18,Belgium,Raw,Juniors,51.8,52,117.5,-122.5,-122.5,117.5,68,-70,70,70,152.5,-160,-160,152.5,340,SBD
2,Annelies Van De Velde,F,2001-06-19,22,Belgium,Raw,Juniors,51.1,52,95,-100,-100,95,60,62.5,65,65,110,117.5,122.5,122.5,282.5,SBD
1,Léa Bantuelle,F,2004-01-16,20,Belgium,Raw,Juniors,55.6,57,120,125,127.5,127.5,47.5,52.5,55,55,130,137.5,145,145,327.5,SBD
2,Yana Rombouts,F,2002-01-28,22,Belgium,Raw,Juniors,56.1,57,120,125,127.5,127.5,70,-74,-74,70,117.5,125,130,130,327.5,SBD
3,Maelle Maes,F,2003-10-24,20,Belgium,Raw,Juniors,56.7,57,100,105,110,110,62.5,67.5,-70,67.5,135,142.5,-147.5,142.5,320,SBD
1,Clara Haulot,F,2001-08-28,22,Belgium,Raw,Juniors,62.5,63,147.5,157.5,162.5,162.5,77.5,82.5,85.5,85.5,170,182.5,-190.5,182.5,430.5,SBD
2,Lou Boonen,F,2005-04-12,18,Belgium,Raw,Juniors,61.2,63,135,145,150,150,67.5,72.5,-75,72.5,152.5,-162.5,162.5,162.5,385,SBD
3,Jessie Van Bulck,F,2002-06-16,21,Belgium,Raw,Juniors,62.5,63,135,142.5,-147.5,142.5,65,-67.5,,65,145,152.5,160,160,367.5,SBD
4,Aurélie Van Nuffelen,F,2001-06-18,22,Belgium,Raw,Juniors,62.6,63,-132.5,-137.5,137.5,137.5,62.5,65,-67.5,65,145,155,-160,155,357.5,SBD
5,Morgane Bouvy,F,2002-03-05,22,Belgium,Raw,Juniors,61,63,132.5,140,-145,140,57.5,65,-70,65,140,150,-162.5,150,355,SBD
6,Julie De Preter,F,2003-03-10,21,Belgium,Raw,Juniors,61,63,127.5,132.5,135,135,52.5,55,57.5,57.5,140,147.5,152.5,152.5,345,SBD
7,Nawâl Arras,F,2004-09-02,19,Belgium,Raw,Juniors,61.9,63,117.5,122.5,-125,122.5,55,-57.5,57.5,57.5,140,145,150,150,330,SBD
8,Emma Léon,F,2003-01-18,21,Belgium,Raw,Juniors,62.9,63,97.5,105,110,110,57.5,62.5,67.5,67.5,135,145,152.5,152.5,330,SBD
9,Elise Bossu,F,2001-07-11,22,Belgium,Raw,Juniors,62.2,63,107.5,-115,115,115,55,60,-62.5,60,130,137.5,140,140,315,SBD
10,Patrycja Klofczynska,F,2001-08-15,22,Poland,Raw,Juniors,62.6,63,105,112.5,-120,112.5,-50,55,-57.5,55,135,145,147.5,147.5,315,SBD
11,Maeva Magnier,F,2004-08-05,19,Belgium,Raw,Juniors,63,63,110,115,122.5,122.5,45,52.5,-57.5,52.5,125,132.5,-140,132.5,307.5,SBD
12,Amalia Monfort,F,2003-11-07,20,Belgium,Raw,Juniors,60,63,102.5,107.5,112.5,112.5,60,-62.5,62.5,62.5,115,122.5,127.5,127.5,302.5,SBD
13,Lisa Heinen,F,2004-09-17,19,Belgium,Raw,Juniors,62.1,63,100,105,110,110,52.5,57.5,-60,57.5,110,125,130,130,297.5,SBD
1,Kaya Goossens,F,2001-12-06,22,Belgium,Raw,Juniors,68.5,69,162.5,170.5,-173.5,170.5,87.5,90.5,93,93,167.5,180,-192.5,180,443.5,SBD
2,Alix Lhoir,F,2004-09-09,19,Belgium,Raw,Juniors,68.5,69,155,162.5,-170,162.5,77.5,82.5,85,85,170,-180,-180,170,417.5,SBD
3,Fien Bonaventure,F,2003-04-10,20,Belgium,Raw,Juniors,68.5,69,117.5,125,130,130,67.5,-72.5,-72.5,67.5,155,165,172.5,172.5,370,SBD
4,Clara Thirion,F,2004-11-25,19,Belgium,Raw,Juniors,69,69,110,115,-120,115,65,67.5,-70,67.5,160,175,-182.5,175,357.5,SBD
1,Yente Van Meel,F,2001-06-07,22,Belgium,Raw,Juniors,75.9,76,165,-175,175,175,77.5,82.5,-85,82.5,175,182.5,187.5,187.5,445,SBD
2,Luna Coronado,F,2003-09-20,20,Belgium,Raw,Juniors,75.5,76,170,-181,-181,170,92.5,-97.5,-97.5,92.5,165,172.5,180,180,442.5,SBD
3,Mariska Martens,F,2002-10-01,21,Belgium,Raw,Juniors,73.1,76,140,147.5,152.5,152.5,77.5,82.5,85,85,160,170,177.5,177.5,415,SBD
4,Ellen Goorman,F,2004-10-29,19,Belgium,Raw,Juniors,75.7,76,155,162.5,170,170,87.5,92.5,93.5,93.5,140,150,-160,150,413.5,SBD
5,Marie Waegeneers,F,2004-08-11,19,Belgium,Raw,Juniors,74.7,76,130,137.5,-142.5,137.5,67.5,72.5,77.5,77.5,160,172.5,-180,172.5,387.5,SBD
6,Maude Sterckx,F,2004-01-08,20,Belgium,Raw,Juniors,73.8,76,132.5,140,-145,140,75,80,-82.5,80,145,160,-170,160,380,SBD
7,Lydwin Lecrenier,F,2005-12-05,18,Belgium,Raw,Juniors,76,76,120,127.5,132.5,132.5,70,75,-77.5,75,140,152.5,-157.5,152.5,360,SBD
1,Fatima Elouafi,F,2004-04-10,19,Belgium,Raw,Juniors,96.2,84+,-160,165,170.5,170.5,80,85,-90,85,190,207.5,-215,207.5,463,SBD
NS,Anne Daineffe,F,1982-01-03,42,Belgium,Raw,Masters 1,,,,,,,,,,,,,,,,SBD
NS,Veronique Valaeys,F,1977-09-11,46,Belgium,Raw,Masters 1,,,,,,,,,,,,,,,,SBD
1,Elise Rummens,F,1981-11-09,42,Belgium,Raw,Masters 1,56.1,57,125,132.5,138,138,67.5,70,-72.5,70,172.5,185,-193,185,393,SBD
1,Sahyuri Lalime,F,1984-11-18,39,USA,Raw,Masters 1,63,63,-165,172.5,-177.5,172.5,85,87.5,90,90,180,192.5,197.5,197.5,460,SBD
2,Evelien Artoos,F,1981-12-09,42,Belgium,Raw,Masters 1,62.3,63,125,135,140,140,62.5,67.5,-72.5,67.5,145,155,-162.5,155,362.5,SBD
1,Anne-Mieke Nuyts,F,1975-05-13,48,Belgium,Raw,Masters 1,72.3,76,120,125,-127.5,125,70,72.5,-75.5,72.5,165,170,172.5,172.5,370,SBD
2,Katrien Adriaensens,F,1980-01-31,44,Belgium,Raw,Masters 1,73.8,76,125,-127.5,132.5,132.5,62.5,-67.5,-67.5,62.5,150,165,-170,165,360,SBD
1,Catherine Defraey,F,1984-10-16,39,Belgium,Raw,Masters 1,80.7,84,110,120,-127.5,120,62.5,67.5,-70,67.5,120,130,135,135,322.5,SBD
1,Evelyne Roos,F,1980-06-18,43,Belgium,Raw,Masters 1,101.2,84+,130,-140,150,150,67.5,72.5,-75.5,72.5,160,173,-177.5,173,395.5,SBD
1,Kimberly Ellis,F,1974-12-16,49,Belgium,Raw,Masters 2,58.3,63,107.5,115,-120,115,68,-71,-71,68,130,137.5,-148,137.5,320.5,SBD
1,Wendy Michiels,F,1974-03-18,50,Belgium,Raw,Masters 2,68.5,69,100,107.5,,107.5,65,72.5,,72.5,120,130,140,140,320,SBD
1,Marie Louchart,F,2007-06-18,16,Belgium,Raw,Sub-Juniors,50.8,52,100,-105,-105,100,-52.5,-55,55,55,110,-115,-115,110,265,SBD
1,Maeva Dero,F,2006-09-22,17,Belgium,Raw,Sub-Juniors,56.5,57,127.5,135,-140,135,-72.5,72.5,-77.5,72.5,165,-174,-174,165,372.5,SBD
1,Dorien Ballet,F,2008-11-17,15,Belgium,Raw,Sub-Juniors,61.7,63,-117.5,125,-130,125,60,-65,-65,60,130,-137.5,-137.5,130,315,SBD
2,Sihame Habryka,F,2006-08-09,17,Belgium,Raw,Sub-Juniors,58.7,63,105,112.5,-117.5,112.5,55,-60,-60,55,130,142.5,-150,142.5,310,SBD
1,Zita Depoorter,F,2006-03-06,18,Belgium,Raw,Sub-Juniors,66.4,69,120,132.5,140,140,55,60,-62.5,60,135,152.5,160,160,360,SBD
2,Lola Charpentier,F,2008-06-18,15,Belgium,Raw,Sub-Juniors,67.5,69,125,130,-132.5,130,70,75,-77.5,75,130,-140,145,145,350,SBD
3,Zohra Van Lent,F,2007-10-21,16,Belgium,Raw,Sub-Juniors,66.2,69,135,-142.5,148,148,45,47.5,50,50,125,137.5,-152.5,137.5,335.5,SBD
4,Rani Yzewyn,F,2006-09-22,17,Belgium,Raw,Sub-Juniors,68.5,69,107.5,112.5,-115,112.5,-55,55,60,60,122.5,130,-137.5,130,302.5,SBD
DQ,Jessica Wendy Bessang Ekom,F,2006-08-30,17,Belgium,Raw,Sub-Juniors,65.3,69,102.5,110,-117.5,110,-50,-50,-50,,130,-137.5,137.5,137.5,,SBD
1,Luna Claes,F,2007-03-02,17,Belgium,Raw,Sub-Juniors,72.5,76,115,122.5,130,130,65,70,72.5,72.5,132.5,143,147.5,147.5,350,SBD
2,Emma Giordano,F,2009-10-13,14,Belgium,Raw,Sub-Juniors,74.2,76,127.5,-135,-135,127.5,70,75,-80,75,120,130,-140,130,332.5,SBD
NS,Beau Tavernier,M,2002-01-16,22,Belgium,Raw,Juniors,,,,,,,,,,,,,,,,SBD
NS,Kenji Borremans,M,2005-01-13,19,Belgium,Raw,Juniors,,,,,,,,,,,,,,,,SBD
NS,Robbe Berten Stein,M,2002-11-08,21,Belgium,Raw,Juniors,,,,,,,,,,,,,,,,SBD
1,Ryan Deblaere,M,2004-07-09,19,Belgium,Raw,Juniors,58.3,59,147.5,156,162.5,162.5,82.5,87.5,92.5,92.5,190,202.5,-210,202.5,457.5,SBD
2,Bram Deckmyn,M,2004-03-21,20,Belgium,Raw,Juniors,57.3,59,142.5,152.5,157.5,157.5,100,-105.5,-105.5,100,160,172.5,180,180,437.5,SBD
3,Théo Engelbert,M,2003-07-23,20,Belgium,Raw,Juniors,58,59,150,-157.5,-157.5,150,75,-80,80,80,180,-192.5,-192.5,180,410,SBD
1,Andrea Cervi,M,2001-07-24,22,Belgium,Raw,Juniors,65.9,66,190,-197.5,197.5,197.5,115,122.5,127.5,127.5,215,227.5,235,235,560,SBD
2,Nick Blockmans,M,2003-04-11,20,Belgium,Raw,Juniors,64.9,66,182.5,192.5,197.5,197.5,122.5,127.5,130,130,210,222.5,230,230,557.5,SBD
3,Noah Legrain,M,2003-12-02,20,Belgium,Raw,Juniors,65.8,66,175,185,190,190,130,137.5,-143.5,137.5,185,200,215,215,542.5,SBD
4,Lionel Brunin,M,2002-06-26,21,Belgium,Raw,Juniors,65.3,66,177.5,185,-190,185,122.5,125,-132.5,125,200,212.5,-217.5,212.5,522.5,SBD
5,Emre-Can Duran,M,2004-05-26,19,Belgium,Raw,Juniors,66,66,175,185,195,195,110,115,-117.5,115,-200,210,-235,210,520,SBD
6,Mathys Engelbert,M,2005-11-24,18,Belgium,Raw,Juniors,64.8,66,160,-172.5,172.5,172.5,97.5,102.5,-107.5,102.5,210,220,225,225,500,SBD
7,Zakaria Laâyoun,M,2005-07-04,18,Belgium,Raw,Juniors,63.1,66,145,160,-172.5,160,100,105,110,110,190,205,215,215,485,SBD
8,Niels Deckmyn,M,2003-02-02,21,Belgium,Raw,Juniors,64.8,66,160,172.5,-180,172.5,100,105,-107.5,105,180,195,-210,195,472.5,SBD
9,Jahson Kamara,M,2005-12-09,18,Belgium,Raw,Juniors,65.1,66,157.5,165,170,170,95,-102.5,102.5,102.5,180,190,200,200,472.5,SBD
10,Arnaud Robbeets,M,2001-02-05,23,Belgium,Raw,Juniors,65.6,66,150,160,-167.5,160,105,112.5,-115,112.5,195,-215,-215,195,467.5,SBD
11,Jason Colinet,M,2003-04-25,20,Belgium,Raw,Juniors,65,66,140,155,-165,155,107.5,-112.5,,107.5,167.5,177.5,185,185,447.5,SBD
12,Emilien Collet,M,2004-04-01,19,Belgium,Raw,Juniors,66,66,160,167.5,175,175,77.5,82.5,-85,82.5,175,190,-200,190,447.5,SBD
1,Mario Magro,M,2005-05-19,18,Belgium,Raw,Juniors,73.6,74,-230,-230,230,230,125,132.5,135,135,260,-280,-290.5,260,625,SBD
2,Casper Schedin,M,2004-03-05,20,Belgium,Raw,Juniors,72.7,74,190,205,210,210,107.5,115,120,120,240,252.5,262.5,262.5,592.5,SBD
3,Solano Peracchi,M,2004-05-18,19,Belgium,Raw,Juniors,73.5,74,190,197.5,202.5,202.5,115,122.5,125,125,245,-257.5,257.5,257.5,585,SBD
4,Flavio Scuderi,M,2003-03-21,21,Belgium,Raw,Juniors,71.7,74,210,-217.5,217.5,217.5,135,-140,-140,135,212.5,222.5,230,230,582.5,SBD
5,Deegan Renaut,M,2004-02-16,20,Belgium,Raw,Juniors,72.1,74,195,207.5,212.5,212.5,107.5,115,117.5,117.5,235,250,-255,250,580,SBD
6,Sacha Urbanczyk,M,2004-09-15,19,Belgium,Raw,Juniors,73,74,215,-222.5,-222.5,215,120,-125,-125,120,242.5,-250,-252.5,242.5,577.5,SBD
7,Milan Vyncke,M,2004-10-04,19,Belgium,Raw,Juniors,72.5,74,160,170,175,175,147.5,155,161.5,161.5,180,200,215,215,551.5,SBD
8,Ruhne De Borger,M,2005-01-28,19,Belgium,Raw,Juniors,73.5,74,170,175,180,180,127.5,130,135,135,210,225,-235,225,540,SBD
9,Martin Lermen,M,2002-08-27,21,Belgium,Raw,Juniors,73.3,74,165,172.5,177.5,177.5,112.5,115,117.5,117.5,220,235,240,240,535,SBD
10,Thiago Da Silva,M,2003-12-08,20,Belgium,Raw,Juniors,73.6,74,177.5,185,-192.5,185,107.5,115,-120,115,220,230,-237.5,230,530,SBD
11,Yanis Boermans,M,2004-07-22,19,Belgium,Raw,Juniors,73.7,74,175,-185,-185,175,105,-112.5,-112.5,105,225,240,-245,240,520,SBD
12,Louis Torres,M,2003-09-03,20,France,Raw,Juniors,73.5,74,175,185,190,190,100,105,110,110,200,215,-225,215,515,SBD
13,Bachir Khatibi,M,2003-08-14,20,Belgium,Raw,Juniors,70.2,74,172.5,180,-187.5,180,107.5,115,122.5,122.5,197.5,210,-217.5,210,512.5,SBD
1,Tuur Verstrepen,M,2002-03-06,22,Belgium,Raw,Juniors,81.4,83,240,250,257.5,257.5,160,165,167.5,167.5,270,290,-293.5,290,715,SBD
2,Nicolas Warnon,M,2003-05-07,20,Belgium,Raw,Juniors,82.7,83,210,230,-240,230,130,135,140,140,240,260,270,270,640,SBD
3,Tom Zabeau,M,2003-04-07,20,Belgium,Raw,Juniors,82.5,83,202.5,215,222.5,222.5,157.5,162.5,-165,162.5,235,247.5,252.5,252.5,637.5,SBD
4,Martin Waegeneers,M,2002-10-21,21,Belgium,Raw,Juniors,81.3,83,200,212.5,222.5,222.5,-115,120,125,125,240,260,275,275,622.5,SBD
5,Simon Ceuppens,M,2005-04-10,18,Belgium,Raw,Juniors,80.7,83,195,205,215,215,137.5,145,-147.5,145,240,257.5,-270,257.5,617.5,SBD
6,Nathan Cavrenne,M,2003-08-01,20,Belgium,Raw,Juniors,82.3,83,-207.5,212.5,-222.5,212.5,125,132.5,137.5,137.5,232.5,-252.5,260,260,610,SBD
7,Kevin Schippers,M,2001-09-07,22,Netherlands,Raw,Juniors,82.2,83,192.5,205,215,215,-117.5,122.5,127.5,127.5,235,250,265,265,607.5,SBD
8,Jason Magerat,M,2003-08-26,20,Belgium,Raw,Juniors,79.6,83,200,210,-215,210,172.5,181.5,-190,181.5,210,-230,-230,210,601.5,SBD
9,Nolan Phlips,M,2002-02-19,22,Belgium,Raw,Juniors,82.3,83,200,210,217.5,217.5,135,142.5,147.5,147.5,222.5,235,-242.5,235,600,SBD
10,Dylan Van Der Vurst,M,2002-01-16,22,Belgium,Raw,Juniors,80.5,83,182.5,187.5,190,190,-115,120,130,130,255,270,-280,270,590,SBD
11,Wesley Seghers,M,2003-12-17,20,Belgium,Raw,Juniors,81.6,83,205,212.5,220,220,130,135,-140,135,215,230,-237.5,230,585,SBD
12,Nathan Igben,M,2003-12-21,20,Belgium,Raw,Juniors,82.9,83,205,207.5,-225,207.5,125,132.5,-135,132.5,210,220,,220,560,SBD
13,Ramzi Ziani,M,2002-07-01,21,Belgium,Raw,Juniors,80.9,83,-187.5,192.5,-200,192.5,107.5,-115,-115,107.5,235,-255,-255,235,535,SBD
DQ,Andréa Bianconi,M,2001-12-04,22,Belgium,Raw,Juniors,82.7,83,-215,-220,-220,,115,122.5,-127.5,122.5,-255,-270,-270,,,SBD
1,Florent Alaime,M,2002-04-26,21,Belgium,Raw,Juniors,92.2,93,235,250,-265,250,160,167.5,172.5,172.5,250,275,-292.5,275,697.5,SBD
2,Pierre Prevost,M,2002-01-03,22,Belgium,Raw,Juniors,92.3,93,230,242.5,250,250,162.5,172.5,-180,172.5,235,255,270,270,692.5,SBD
3,Zakaria Abouchibet Baabou,M,2002-08-26,21,Spain,Raw,Juniors,91.6,93,230,245,-252.5,245,142.5,147.5,-152.5,147.5,237.5,252.5,270,270,662.5,SBD
4,Brent Frans,M,2003-03-20,21,Belgium,Raw,Juniors,92,93,212.5,225,-235,225,140,145,-147.5,145,265,282.5,-298,282.5,652.5,SBD
5,Simon Plennevaux,M,2002-01-19,22,Belgium,Raw,Juniors,92.3,93,230,242.5,250,250,135,142.5,145,145,235,255,-270,255,650,SBD
6,Nicolas Dejace,M,2001-06-18,22,Belgium,Raw,Juniors,92.2,93,212.5,222.5,225,225,140,147.5,152.5,152.5,235,245,252.5,252.5,630,SBD
7,Leonard Martens,M,2005-08-08,18,Belgium,Raw,Juniors,93,93,195,205,215,215,115,125,135,135,255,270,280,280,630,SBD
8,Vamig Heybatov,M,2001-06-09,22,Azerbaijan,Raw,Juniors,89.3,93,-205,205,215,215,120,130,135,135,240,255,270,270,620,SBD
9,Jess Clarysse,M,2001-10-16,22,Belgium,Raw,Juniors,91,93,190,205,220,220,130,135,-140,135,230,250,265,265,620,SBD
10,Jochen Creupelandt,M,2001-10-19,22,Belgium,Raw,Juniors,90.2,93,210,217.5,-225,217.5,110,117.5,-122.5,117.5,230,255,265,265,600,SBD
11,Kyan Joubert,M,2002-03-05,22,Belgium,Raw,Juniors,92.3,93,190,202.5,-210,202.5,135,142.5,147.5,147.5,220,250,-275,250,600,SBD
12,Faisal Ettarrahi,M,2004-06-12,19,Belgium,Raw,Juniors,91.8,93,180,195,-205,195,120,127.5,-130,127.5,225,240,250,250,572.5,SBD
1,Imad Hamich,M,2002-01-06,22,Belgium,Raw,Juniors,103.9,105,265,280,290,290,175,182.5,187.5,187.5,295,314,-329,314,791.5,SBD
2,Niels Ceuppens,M,2002-11-06,21,Belgium,Raw,Juniors,103.7,105,270,277.5,-282.5,277.5,190,200.5,-203,200.5,292.5,300,-315,300,778,SBD
3,Guillaume Marechal,M,2001-12-09,22,Belgium,Raw,Juniors,103.4,105,255,270,280,280,170,180,-185,180,280,300,315,315,775,SBD
4,Bryan Magbetha,M,2005-02-25,19,Belgium,Raw,Juniors,102.1,105,235,252.5,-265,252.5,157.5,167.5,-172.5,167.5,295,313.5,-318.5,313.5,733.5,SBD
5,Cas Vervoort,M,2003-06-13,20,Belgium,Raw,Juniors,103.9,105,230,242.5,-252.5,242.5,150,160,-165,160,277.5,295,307.5,307.5,710,SBD
6,Augustin Van Moer,M,2004-02-26,20,Belgium,Raw,Juniors,102.4,105,225,237.5,-245,237.5,140,145,150,150,245,262.5,275,275,662.5,SBD
7,Salvatore Ciulla,M,2001-05-30,22,Belgium,Raw,Juniors,98.4,105,220,235,245,245,130,137.5,-142.5,137.5,230,260,275,275,657.5,SBD
8,Senne Briesen,M,2001-07-18,22,Belgium,Raw,Juniors,103.9,105,230,240,247.5,247.5,162.5,-167.5,-167.5,162.5,237.5,247.5,-257.5,247.5,657.5,SBD
9,Jens De Maeseneer,M,2001-08-10,22,Belgium,Raw,Juniors,104,105,-212.5,-220,220,220,147.5,155,160,160,260,277.5,-285,277.5,657.5,SBD
10,Olivier Van den Broek,M,2001-06-15,22,Belgium,Raw,Juniors,102.4,105,220,235,242.5,242.5,137.5,142.5,145,145,230,250,260,260,647.5,SBD
11,Dylan Vandenabeel,M,2003-08-28,20,Belgium,Raw,Juniors,104.6,105,202.5,212.5,220,220,115,120,125,125,245,262.5,275,275,620,SBD
12,Aaron Van Den Berghe,M,2002-04-28,21,Belgium,Raw,Juniors,100.8,105,200,210,-217.5,210,130,135,140,140,245,265,-275,265,615,SBD
13,Michiel Heremans,M,2001-12-18,22,Belgium,Raw,Juniors,101.6,105,210,220,225,225,110,-112.5,-112.5,110,260,-275,-275,260,595,SBD
14,Emilio Madera Y Diaz,M,2004-09-17,19,Belgium,Raw,Juniors,103.9,105,192.5,205,215,215,135,-142.5,-142.5,135,-200,215,225,225,575,SBD
1,Geert Vroonen,M,2002-01-28,22,Belgium,Raw,Juniors,118.1,120,240,260,280,280,190,198,-200,198,250,260,270,270,748,SBD
2,Isam Wadeh,M,2003-11-19,20,Belgium,Raw,Juniors,119.5,120,245,-257.5,-262.5,245,135,140,-142.5,140,275,290,-300,290,675,SBD
3,Sybe Oris,M,2005-01-14,19,Belgium,Raw,Juniors,107.2,120,210,225,-235,225,120,127.5,-130,127.5,212.5,227.5,-240,227.5,580,SBD
1,Kristiaan Ten,M,2001-08-15,22,Belgium,Raw,Juniors,144.6,120+,292.5,315,330,330,177.5,185,-188,185,295,310,-330,310,825,SBD
2,Giel Hendriks,M,2002-03-19,22,Belgium,Raw,Juniors,134.3,120+,262.5,-282.5,290,290,157.5,167.5,-172.5,167.5,280,300,318,318,775.5,SBD
1,Jimmy Van De Wiel,M,1977-10-05,46,Belgium,Raw,Masters 1,82.2,83,210,-220,220,220,150,157.5,-162.5,157.5,210,220,225,225,602.5,SBD
1,Kenny Dedeurwaerder,M,1980-08-18,43,Belgium,Raw,Masters 1,88.4,93,185,195,197.5,197.5,125,127.5,130,130,225,230,240,240,567.5,SBD
2,Kevin Van Parys,M,1983-03-10,41,Belgium,Raw,Masters 1,92.1,93,187.5,197.5,205,205,120,122.5,125,125,212.5,222.5,232.5,232.5,562.5,SBD
3,Yves Freres,M,1983-09-27,40,Belgium,Raw,Masters 1,90.5,93,162.5,172.5,180,180,112.5,-120,120,120,180,200,-205,200,500,SBD
1,Rachid Acheache,M,1978-07-25,45,Belgium,Raw,Masters 1,103.9,105,-245,255,-265,255,132.5,140,142.5,142.5,250,265,275,275,672.5,SBD
2,Richard Hogg,M,1979-03-05,45,Belgium,Raw,Masters 1,102.5,105,165,-175,-175,165,110,115,-117.5,115,200,210,-220,210,490,SBD
1,Björn Vandenheede,M,1978-09-16,45,Belgium,Raw,Masters 1,111.3,120,180,192.5,202.5,202.5,120,127.5,132.5,132.5,195,207.5,222.5,222.5,557.5,SBD
1,Maarten Terryn,M,1978-08-25,45,Belgium,Raw,Masters 1,125.3,120+,225,237.5,245,245,160,-167.5,167.5,167.5,235,250,-255,250,662.5,SBD
1,Dirk Verbruggen,M,1970-06-04,53,Belgium,Raw,Masters 2,65.1,66,165,172.5,175,175,82.5,-90,-90,82.5,190,-195,-195,190,447.5,SBD
1,Tirth Ram,M,1973-03-18,51,India,Raw,Masters 2,81.3,83,160,170,175,175,-140,140,-142.5,140,-210,210,215,215,530,SBD
1,Marc Vandewiele,M,1974-07-06,49,Belgium,Raw,Masters 2,104,105,252.5,267.5,-277.5,267.5,142.5,147.5,152.5,152.5,275,292.5,307.5,307.5,727.5,SBD
2,Reint Helewaut,M,1973-04-06,50,Belgium,Raw,Masters 2,95.8,105,117.5,122.5,127.5,127.5,80,87.5,90,90,160,175,185,185,402.5,SBD
1,Michel Bertrand,M,1957-05-19,66,Belgium,Raw,Masters 3,73.2,74,155,162.5,168.5,168.5,85,87.5,-90,87.5,160,170,177.5,177.5,433.5,SBD
1,Ridvan Kuraoglu,M,1959-03-25,65,Belgium,Raw,Masters 3,90.9,93,-182.5,-182.5,182.5,182.5,115,129,,129,-180,180,-190,180,491.5,SBD
1,Serge Piret,M,1958-10-01,65,Belgium,Raw,Masters 3,101.9,105,135,145,152.5,152.5,100,105,107.5,107.5,175,180,190,190,450,SBD
NS,Baptiste Luthereau,M,2008-02-25,16,Belgium,Raw,Sub-Juniors,,,,,,,,,,,,,,,,SBD
1,Yassin Karkach Sajia,M,2007-05-15,16,Spain,Raw,Sub-Juniors,58.1,59,127.5,135,142.5,142.5,75,80,82.5,82.5,172.5,182.5,-192.5,182.5,407.5,SBD
2,Theo Christian,M,2006-09-10,17,Belgium,Raw,Sub-Juniors,58.3,59,-125,125,-135,125,80,85,-87.5,85,180,190,-200,190,400,SBD
3,Matizzio Ascoli,M,2006-02-14,18,Belgium,Raw,Sub-Juniors,57.3,59,-125,-130,132.5,132.5,72.5,80,-85,80,162.5,-172.5,-172.5,162.5,375,SBD
1,Alexi Lobet,M,2007-10-15,16,Belgium,Raw,Sub-Juniors,65.5,66,162.5,172.5,180,180,90,-95,-95,90,212.5,222.5,-230,222.5,492.5,SBD
2,Luca Dewez Atienza,M,2006-05-13,17,Belgium,Raw,Sub-Juniors,65.5,66,145,155,162.5,162.5,85,90,95,95,195,-205,-205,195,452.5,SBD
3,Leo Nolle,M,2007-05-07,16,Belgium,Raw,Sub-Juniors,65.2,66,137.5,147.5,155,155,85,90,92.5,92.5,177.5,190,195,195,442.5,SBD
4,Nathan Feron,M,2008-01-06,16,Belgium,Raw,Sub-Juniors,65.3,66,132.5,142.5,150,150,-85,85,90,90,170,185,200,200,440,SBD
5,Loic Maerschalcke,M,2006-10-09,17,Belgium,Raw,Sub-Juniors,62.5,66,140,145,-150,145,90,-95,-95,90,160,170,180,180,415,SBD
DQ,Lucas Brohe,M,2006-03-13,18,Belgium,Raw,Sub-Juniors,63.2,66,-145,-145,-160,,-100,,,,,,,,,SBD
1,Mattéo Van Vynckt,M,2006-01-15,18,Belgium,Raw,Sub-Juniors,73.6,74,200,215,-222.5,215,125,130,-133.5,130,230,-248,-248,230,575,SBD
2,Ethan Meyssen,M,2007-01-30,17,Belgium,Raw,Sub-Juniors,72.8,74,182.5,192.5,-200,192.5,110,112.5,-115,112.5,200,210,-215,210,515,SBD
3,Alessio Domina,M,2006-02-20,18,Belgium,Raw,Sub-Juniors,73.6,74,165,172.5,177.5,177.5,-112.5,112.5,-120,112.5,210,220,-225,220,510,SBD
4,Tristan Moret,M,2006-08-22,17,Belgium,Raw,Sub-Juniors,68.2,74,160,167.5,172.5,172.5,102.5,107.5,-112.5,107.5,200,210,217.5,217.5,497.5,SBD
5,Sybren Desoete,M,2007-04-04,16,Belgium,Raw,Sub-Juniors,73.4,74,160,167.5,-175,167.5,-95,100,102.5,102.5,175,185,192.5,192.5,462.5,SBD
6,Antoine Lecolier,M,2006-03-21,18,Belgium,Raw,Sub-Juniors,72.5,74,-160,165,-170,165,75,80,85,85,205,-210,-210,205,455,SBD
7,Maxime Melckmans,M,2007-05-14,16,Belgium,Raw,Sub-Juniors,70.9,74,145,160,-170,160,72.5,80,-85,80,175,190,202.5,202.5,442.5,SBD
8,Rémi Kindt,M,2007-08-15,16,Belgium,Raw,Sub-Juniors,71.2,74,137.5,147.5,-157.5,147.5,100,107.5,-110,107.5,175,-185,-185,175,430,SBD
9,Noa Mahjoubi,M,2006-10-03,17,Belgium,Raw,Sub-Juniors,71,74,140,152.5,-165,152.5,92.5,100,-105,100,150,-165,167.5,167.5,420,SBD
1,Tim Hubrechts,M,2006-10-17,17,Belgium,Raw,Sub-Juniors,82.3,83,195,202.5,212.5,212.5,115,125,-130,125,215,225,232.5,232.5,570,SBD
2,Thomas Boucquez,M,2006-05-05,17,Belgium,Raw,Sub-Juniors,76.4,83,197.5,-207.5,207.5,207.5,92.5,97.5,100,100,230,245,-262.5,245,552.5,SBD
3,Soufiane Bouzelmat,M,2006-02-11,18,Belgium,Raw,Sub-Juniors,79.6,83,-175,180,187.5,187.5,125,132.5,-137.5,132.5,210,225,-235,225,545,SBD
4,Mathis Rouet,M,2007-07-26,16,Belgium,Raw,Sub-Juniors,80.2,83,170,185,200,200,95,105,-115,105,195,212.5,-225,212.5,517.5,SBD
5,Alessio Curci,M,2007-05-17,16,Belgium,Raw,Sub-Juniors,81.4,83,155,165,170,170,105,110,115,115,200,215,220,220,505,SBD
6,Lasse Willems,M,2007-04-03,16,Belgium,Raw,Sub-Juniors,81.1,83,150,162.5,172.5,172.5,107.5,115,120,120,185,197.5,210,210,502.5,SBD
DQ,Léo Beauchot,M,2006-01-15,18,Belgium,Raw,Sub-Juniors,76.8,83,-185,185,195,195,132.5,-140,-140,132.5,-245,-245,-245,,,SBD
1,Georges Bastien,M,2006-04-26,17,Belgium,Raw,Sub-Juniors,90.7,93,215,232.5,242.5,242.5,145,155,160,160,240,-260,260,260,662.5,SBD
2,Gabriel Caushi,M,2006-11-29,17,Belgium,Raw,Sub-Juniors,91.5,93,200,-215,215,215,155,162.5,-168,162.5,240,257.5,267.5,267.5,645,SBD
3,Nathan Bronckart,M,2006-07-26,17,Belgium,Raw,Sub-Juniors,91,93,210,217.5,-222.5,217.5,125,-130,-130,125,285,-287.5,-302.5,285,627.5,SBD
4,Erwin Libion,M,2006-03-31,17,Belgium,Raw,Sub-Juniors,91.3,93,197.5,212.5,217.5,217.5,112.5,120,125,125,205,222.5,230,230,572.5,SBD
5,Joé Paridaens,M,2008-04-14,15,Belgium,Raw,Sub-Juniors,90.1,93,187.5,200,210,210,100,107.5,112.5,112.5,210,-225,-235,210,532.5,SBD
6,Timéo Chille,M,2007-11-05,16,Belgium,Raw,Sub-Juniors,92.1,93,165,175,-182.5,175,117.5,120,-125,120,200,210,225,225,520,SBD
7,Nathan Peeters,M,2008-02-01,16,Belgium,Raw,Sub-Juniors,91.3,93,167.5,177.5,185,185,102.5,110,112.5,112.5,180,197.5,212.5,212.5,510,SBD
1,Daan-Clothaire De Deken,M,2007-03-17,17,Belgium,Raw,Sub-Juniors,103.7,105,230,245,-251.5,245,110,115,-120,115,235,247.5,252.5,252.5,612.5,SBD
1,Baptiste Croux,M,2006-02-21,18,Belgium,Raw,Sub-Juniors,117.8,120,205,217.5,225.5,225.5,-127.5,136,140,140,225,245,-255,245,610.5,SBD
