Division,WeightClassKg,Place,Name,Team,BodyweightKg,Best3SquatKg,Best3BenchKg,Best3DeadliftKg,TotalKg,Equipment,Event,Sex,BirthDate
Boys,51.71,1,Cason Wilbanks,Decatur,51.71,165.56,97.52,154.22,417.3,Unlimited,SBD,M,
Boys,51.71,2,Jose Cuellar,Celina,51.57,147.42,95.25,147.42,390.09,Unlimited,SBD,M,
Boys,51.71,3,Braylen Porrell,Carrollton Ranchview,51.44,133.81,74.84,154.22,362.87,Unlimited,SBD,M,
Boys,51.71,4,Christian Southard,Aubrey,50.35,113.4,88.45,136.08,337.93,Unlimited,SBD,M,
Boys,51.71,5,Jerimiah Hartsell,Decatur,51.44,122.47,70.31,138.35,331.12,Unlimited,SBD,M,
Boys,51.71,6,Jayden Matthews,Farmersville,49.49,117.93,72.57,117.93,308.44,Unlimited,SBD,M,
Boys,51.71,7,Leland Adcock,Bridgeport,51.66,129.27,61.23,117.93,308.44,Unlimited,SBD,M,
Boys,51.71,8,Diego Martinez,Krum,47.58,115.67,61.23,129.27,306.17,Unlimited,SBD,M,
Boys,51.71,9,Kevin Corte,Glen Rose,51.53,108.86,68.04,127.01,303.91,Unlimited,SBD,M,
Boys,51.71,10,Hayden Wells,Krum,51.57,95.25,61.23,113.4,269.89,Unlimited,SBD,M,
Boys,51.71,11,Christian Ruiz,Wichita Falls,49.17,83.91,49.9,106.59,240.4,Unlimited,SBD,M,
Boys,51.71,DQ,David Ayala Sanchez,Quinlan Ford,49.99,124.74,88.45,,,Unlimited,SBD,M,
Boys,55.79,1,Braulio Rodriguez,Nevada Community,55.2,213.19,136.08,206.38,555.65,Unlimited,SBD,M,
Boys,55.79,2,Josue Soto,Nevada Community,54.57,156.49,111.13,165.56,433.18,Unlimited,SBD,M,
Boys,55.79,3,Knox Wilson,Van Alstyne,54.48,165.56,90.72,174.63,430.91,Unlimited,SBD,M,
Boys,55.79,4,Lukas Britt,Decatur,55.47,158.76,102.06,142.88,403.7,Unlimited,SBD,M,
Boys,55.79,5,Bryan Nieto,Decatur,54.98,149.69,97.52,154.22,401.43,Unlimited,SBD,M,
Boys,55.79,6,Hugo Martinez,Springtown,54.98,138.35,88.45,145.15,371.95,Unlimited,SBD,M,
Boys,55.79,7,Graysen Patterson,Quinlan Ford,55.75,124.74,81.65,142.88,349.27,Unlimited,SBD,M,
Boys,55.79,8,Noah Marentes,Decatur,54.98,120.2,72.57,147.42,340.19,Unlimited,SBD,M,
Boys,55.79,9,Juan Bencomo,Springtown,55.34,131.54,77.11,129.27,337.93,Unlimited,SBD,M,
Boys,55.79,10,Justin Hurst,Fort Worth Western Hills,55.79,117.93,63.5,117.93,299.37,Unlimited,SBD,M,
Boys,55.79,NS,Angel Salazar,Bridgeport,,,,,,Unlimited,SBD,M,
Boys,59.87,1,Conner Bakken,Farmersville,59.28,195.04,104.33,170.1,469.47,Unlimited,SBD,M,
Boys,59.87,2,Kaden Erskine,Burkburnett,58.15,181.44,97.52,181.44,460.4,Unlimited,SBD,M,
Boys,59.87,3,Parker Bening,Springtown,58.79,167.83,115.67,176.9,460.4,Unlimited,SBD,M,
Boys,59.87,4,Cristian Phillips,Van Alstyne,59.51,192.78,102.06,165.56,460.4,Unlimited,SBD,M,
Boys,59.87,5,Rafael Chavez,Gainesville,59.42,158.76,122.47,154.22,435.45,Unlimited,SBD,M,
Boys,59.87,6,Fredy Segovia,Quinlan Ford,59.6,163.29,95.25,170.1,428.64,Unlimited,SBD,M,
Boys,59.87,7,Preston Cook,Brownwood,59.24,170.1,97.52,151.95,419.57,Unlimited,SBD,M,
Boys,59.87,8,Tyler Stuckey,Aubrey,59.42,147.42,106.59,154.22,408.23,Unlimited,SBD,M,
Boys,59.87,NS,Manny Flores,Glen Rose,,,,,,Unlimited,SBD,M,
Boys,59.87,NS,Wayne Aginaldo,Aubrey,,,,,,Unlimited,SBD,M,
Boys,59.87,DQ,Tyson Scott,Krum,59.42,156.49,102.06,,,Unlimited,SBD,M,
Boys,59.87,DQ,Emanuel Mathews,Sunnyvale,57.24,,,,,Unlimited,SBD,M,
Boys,67.13,1,Evan Rodgers,Celina,66.59,238.14,149.69,219.99,607.81,Unlimited,SBD,M,
Boys,67.13,2,Rafe McComack,Farmersville,63.55,208.65,176.9,208.65,594.21,Unlimited,SBD,M,
Boys,67.13,3,Yeray Penaloza,Farmersville,66.32,192.78,124.74,188.24,505.76,Unlimited,SBD,M,
Boys,67.13,4,Gordon Swartz,Farmersville,66.72,183.7,115.67,201.85,501.22,Unlimited,SBD,M,
Boys,67.13,5,Yaniel DeJesus,Lake Worth,66.13,183.7,115.67,188.24,487.61,Unlimited,SBD,M,
Boys,67.13,6,Hayden Acevedo,Farmersville,65.68,195.04,113.4,174.63,483.08,Unlimited,SBD,M,
Boys,67.13,7,Andres Aldape,Decatur,66.54,190.51,113.4,179.17,483.08,Unlimited,SBD,M,
Boys,67.13,8,David Mendoza,Castleberry,66.54,161.03,108.86,206.38,476.27,Unlimited,SBD,M,
Boys,67.13,9,Luis Lazcano,Springtown,66.32,183.7,108.86,181.44,474,Unlimited,SBD,M,
Boys,67.13,NS,Saul Reyna,Glen Rose,,,,,,Unlimited,SBD,M,
Boys,67.13,DQ,Calvin Rodriguez,Decatur,66.09,176.9,117.93,,,Unlimited,SBD,M,
Boys,67.13,DQ,Jeremy Ansons,Brownwood,67.13,,,,,Unlimited,SBD,M,
Boys,74.84,1,Chris Loma,Decatur,74.07,229.06,149.69,229.06,607.81,Unlimited,SBD,M,
Boys,74.84,2,Aaron Freyer,Aubrey,74.03,249.48,136.08,219.99,605.55,Unlimited,SBD,M,
Boys,74.84,3,Tucker McClanahan,Sanger,74.07,229.06,129.27,231.33,589.67,Unlimited,SBD,M,
Boys,74.84,4,Haidyn Jones,Krum,74.12,238.14,145.15,206.38,589.67,Unlimited,SBD,M,
Boys,74.84,5,Meritt Brewer,Glen Rose,73.94,226.8,138.35,215.46,580.6,Unlimited,SBD,M,
Boys,74.84,6,Cameron McBride,Graham,74.16,213.19,120.2,208.65,542.04,Unlimited,SBD,M,
Boys,74.84,7,James Darwin,Sunnyvale,73.53,192.78,124.74,215.46,532.97,Unlimited,SBD,M,
Boys,74.84,8,Clayton Rice,Bridgeport,73.84,213.19,104.33,215.46,532.97,Unlimited,SBD,M,
Boys,74.84,9,Mateo Gonzalez,Krum,73.03,226.8,120.2,183.7,530.7,Unlimited,SBD,M,
Boys,74.84,10,Jaedan Lester,Carrollton Ranchview,72.89,195.04,117.93,213.19,526.17,Unlimited,SBD,M,
Boys,74.84,11,Mason Witherspoon,Krum,73.44,199.58,124.74,192.78,517.1,Unlimited,SBD,M,
Boys,74.84,DQ,Kevin Duran,Decatur,72.85,229.06,,,,Unlimited,SBD,M,
Boys,82.1,1,Toby Davis,Aubrey,78.93,283.5,136.08,256.28,675.85,Unlimited,SBD,M,
Boys,82.1,2,Chase Hodges,Celina,80.83,238.14,190.51,229.06,657.71,Unlimited,SBD,M,
Boys,82.1,3,Jason Zheng,Brownwood,81.74,229.06,183.7,217.72,630.49,Unlimited,SBD,M,
Boys,82.1,4,Blake White,Quinlan Ford,79.47,219.99,158.76,233.6,612.35,Unlimited,SBD,M,
Boys,82.1,5,Johnathan Donahue,Decatur,81.56,238.14,181.44,192.78,612.35,Unlimited,SBD,M,
Boys,82.1,6,Jake Pack,Stephenville,81.92,242.67,147.42,222.26,612.35,Unlimited,SBD,M,
Boys,82.1,7,Bryan Perales,Lake Worth,81.28,233.6,133.81,219.99,587.4,Unlimited,SBD,M,
Boys,82.1,8,Levi Pearson,Brownwood,79.24,215.46,120.2,219.99,555.65,Unlimited,SBD,M,
Boys,82.1,9,Trent Dickey,Decatur,79.2,204.12,129.27,208.65,542.04,Unlimited,SBD,M,
Boys,82.1,DQ,Bradley Lovelace,Burkburnett,79.97,235.87,136.08,,,Unlimited,SBD,M,
Boys,82.1,DQ,Hayden Hernandez,Stephenville,81.28,217.72,136.08,,,Unlimited,SBD,M,
Boys,82.1,DQ,Mateo Rodriguez,Graham,81.33,,,,,Unlimited,SBD,M,
Boys,89.81,1,Le Davis,Brownwood,89.54,319.78,165.56,226.8,712.14,Unlimited,SBD,M,
Boys,89.81,2,Luke Stacy,Stephenville,88.68,249.48,183.7,219.99,653.17,Unlimited,SBD,M,
Boys,89.81,3,Makeio McKenzie,Fort Worth Eastern Hills,89.04,254.01,158.76,226.8,639.57,Unlimited,SBD,M,
Boys,89.81,4,Reese Saunders,Aubrey,86.41,263.08,154.22,217.72,635.03,Unlimited,SBD,M,
Boys,89.81,5,Justin Stephens,Stephenville,86.45,222.26,151.95,260.82,635.03,Unlimited,SBD,M,
Boys,89.81,6,Kanoa Kau,Burkburnett,88.36,254.01,142.88,238.14,635.03,Unlimited,SBD,M,
Boys,89.81,7,Hector Rincon,Anna,88.5,226.8,151.95,226.8,605.55,Unlimited,SBD,M,
Boys,89.81,8,Damian Gonzalez,Farmersville,84.96,226.8,147.42,226.8,601.01,Unlimited,SBD,M,
Boys,89.81,9,Robert White,Sunnyvale,85.59,229.06,131.54,210.92,571.53,Unlimited,SBD,M,
Boys,89.81,10,Cole Marinelli,Celina,86.27,222.26,147.42,201.85,571.53,Unlimited,SBD,M,
Boys,89.81,11,Jackson Sorrells,Nevada Community,89.49,217.72,154.22,192.78,564.72,Unlimited,SBD,M,
Boys,89.81,12,Drake Taylor,Decatur,89.27,215.46,136.08,204.12,555.65,Unlimited,SBD,M,
Boys,89.81,DQ,Robert Lewis,Springtown,84.46,260.82,136.08,,,Unlimited,SBD,M,
Boys,99.79,1,Diego Capetillo,Farmersville,96.52,290.3,176.9,281.23,748.43,Unlimited,SBD,M,
Boys,99.79,2,Cj Hubbard,Celina,97.16,256.28,195.04,254.01,705.34,Unlimited,SBD,M,
Boys,99.79,3,Keltyn Raymond,Glen Rose,99.34,278.96,170.1,249.48,698.53,Unlimited,SBD,M,
Boys,99.79,4,Hayden Nichols,Springtown,98.2,249.48,151.95,260.82,662.24,Unlimited,SBD,M,
Boys,99.79,5,Armondo Mendez,Celina,92.26,238.14,170.1,249.48,657.71,Unlimited,SBD,M,
Boys,99.79,6,Shannon Rogers,Mineral Wells,96.62,242.67,179.17,224.53,646.37,Unlimited,SBD,M,
Boys,99.79,7,Tate Quinlan,Farmersville,98.2,249.48,185.97,201.85,637.3,Unlimited,SBD,M,
Boys,99.79,8,Cedrick Rodriguez,Decatur,98.11,242.67,156.49,233.6,632.76,Unlimited,SBD,M,
Boys,99.79,9,Riley Vigil,Mineral Wells,97.7,231.33,163.29,222.26,616.89,Unlimited,SBD,M,
Boys,99.79,10,Brandon Gray,Mineral Wells,96.12,258.55,129.27,222.26,610.08,Unlimited,SBD,M,
Boys,99.79,11,Josh Raga,Fort Worth Western Hills,98.66,219.99,129.27,204.12,553.38,Unlimited,SBD,M,
Boys,99.79,DQ,Scout Smith,Graham,97.34,238.14,136.08,,,Unlimited,SBD,M,
Boys,109.77,1,Wyatt Vinzant,Decatur,108.5,294.84,213.19,272.16,780.18,Unlimited,SBD,M,
Boys,109.77,2,Cole Miller,Brownwood,109.45,294.84,174.63,281.23,750.7,Unlimited,SBD,M,
Boys,109.77,3,Aiden Everett,Stephenville,104.01,260.82,183.7,210.92,655.44,Unlimited,SBD,M,
Boys,109.77,4,Blaze Flanagan,Sunnyvale,109.23,265.35,154.22,206.38,625.96,Unlimited,SBD,M,
Boys,109.77,5,Orasio Juarez,Farmersville,108.68,226.8,165.56,229.06,621.42,Unlimited,SBD,M,
Boys,109.77,6,Sawyer Ghazal,Glen Rose,108.45,240.4,176.9,201.85,619.15,Unlimited,SBD,M,
Boys,109.77,7,Julius Lara,Brownwood,101.42,260.82,147.42,201.85,610.08,Unlimited,SBD,M,
Boys,109.77,8,Ariel Claudio,Wichita Falls,101.42,260.82,151.95,188.24,601.01,Unlimited,SBD,M,
Boys,109.77,9,Evan Myrick,Mineral Wells,100.24,208.65,170.1,215.46,594.21,Unlimited,SBD,M,
Boys,109.77,10,Devon Castro,Graham,108.32,249.48,129.27,215.46,594.21,Unlimited,SBD,M,
Boys,109.77,11,Easton Clayton,Celina,104.96,242.67,147.42,192.78,582.87,Unlimited,SBD,M,
Boys,109.77,DQ,Trey Mosley,Brownwood,105.96,238.14,,,,Unlimited,SBD,M,
Boys,124.74,1,Alyric Brown,Sunnyvale,121.93,310.71,165.56,288.03,764.3,Unlimited,SBD,M,
Boys,124.74,2,Alfred Valdez,Wichita Falls Hirschi,120.75,283.5,142.88,263.08,689.46,Unlimited,SBD,M,
Boys,124.74,3,Xavier McCoy,Aubrey,111.95,249.48,188.24,219.99,657.71,Unlimited,SBD,M,
Boys,124.74,4,Breyden Kearby,Springtown,123.56,233.6,140.61,226.8,601.01,Unlimited,SBD,M,
Boys,124.74,DQ,Robert Trowbridge,Brownwood,113.22,260.82,124.74,,,Unlimited,SBD,M,
Boys,124.74,DQ,Keondre Harris,Carrollton Ranchview,114.31,,,,,Unlimited,SBD,M,
Boys,124.74,DQ,Kevin Cruz,Fort Worth Western Hills,114.17,269.89,163.29,,,Unlimited,SBD,M,
Boys,124.74,DQ,Saul Becerra,Castleberry,119.2,,,,,Unlimited,SBD,M,
Boys,124.74,DQ,Christian Vaquera,Castleberry,122.79,,,,,Unlimited,SBD,M,
Boys,124.74,DQ,Logan Knight,Brownwood,122.42,226.8,147.42,,,Unlimited,SBD,M,
Boys,124.74,DQ,Christian Owen,Burkburnett,122.92,249.48,,,,Unlimited,SBD,M,
Boys,124.74,DQ,Corbin Fowler,Quinlan Ford,115.8,260.82,,,,Unlimited,SBD,M,
Boys,139.71,1,Bryan Sanchez,Quinlan Ford,135.31,281.23,192.78,242.67,716.68,Unlimited,SBD,M,
Boys,139.71,2,Mark Vasquez,Farmersville,126.37,256.28,161.03,233.6,650.91,Unlimited,SBD,M,
Boys,139.71,3,Carson Cortez,Bridgeport,137.8,272.16,154.22,215.46,641.83,Unlimited,SBD,M,
Boys,139.71,4,Cayven Hull,Wichita Falls Hirschi,138.07,249.48,145.15,226.8,621.42,Unlimited,SBD,M,
Boys,139.71,5,Chris Williams,Carrollton Ranchview,125.55,226.8,142.88,242.67,612.35,Unlimited,SBD,M,
Boys,139.71,6,Peyton Wilson,Celina,134.26,242.67,151.95,217.72,612.35,Unlimited,SBD,M,
Boys,139.71,7,Jack Scott,Nevada Community,129.27,201.85,201.85,199.58,603.28,Unlimited,SBD,M,
Boys,139.71,8,Jason Reyes,Gainesville,134.94,249.48,151.95,195.04,596.47,Unlimited,SBD,M,
Boys,139.71,9,Khalil Johnson,Carrollton Ranchview,129.41,204.12,136.08,190.51,530.7,Unlimited,SBD,M,
Boys,139.71,10,Trent Wade,Springtown,127.32,190.51,133.81,190.51,514.83,Unlimited,SBD,M,
Boys,139.71,DQ,Ty Hughes,Celina,126.01,,,,,Unlimited,SBD,M,
Boys,139.71,DQ,Aidan Packheiser,Brownwood,139.34,,,,,Unlimited,SBD,M,
Boys,139.71,DQ,Logan Flores,Brownwood,125.55,,,,,Unlimited,SBD,M,
Boys,139.71+,1,Aric Long,Lake Worth,144.97,290.3,195.04,290.3,775.64,Unlimited,SBD,M,
Boys,139.71+,2,Manny Segundo,Celina,148.01,317.51,183.7,254.01,755.23,Unlimited,SBD,M,
Boys,139.71+,3,Kaleb Crawford,Graham,140.3,235.87,136.08,240.4,612.35,Unlimited,SBD,M,
Boys,139.71+,4,Clark Anderson,Glen Rose,143.02,217.72,127.01,204.12,548.85,Unlimited,SBD,M,
Boys,139.71+,5,Travis Horne,Bridgeport,145.33,222.26,129.27,181.44,532.97,Unlimited,SBD,M,
Boys,139.71+,6,Israel Loya,Castleberry,155.99,188.24,124.74,156.49,469.47,Unlimited,SBD,M,
Boys,139.71+,7,Manuel Huerta,Bridgeport,141.79,204.12,102.06,156.49,462.66,Unlimited,SBD,M,
Boys,139.71+,8,Anthony Garcia,Castleberry,148.96,170.1,108.86,165.56,444.52,Unlimited,SBD,M,
Boys,139.71+,9,Adrian Gonzales,Carrollton Ranchview,155.81,174.63,81.65,188.24,444.52,Unlimited,SBD,M,
Boys,,NS,Jalence Kirvin,Lake Worth,,,,,,Unlimited,SBD,M,
